3;20;20
6;7;16
1;1;2
NA;NA;NA;NA;NA;3;NA;NA;NA;NA;NA;NA;NA;NA;NA;4;NA;4;1;NA
3;NA;NA;NA;NA;4;NA;NA;NA;NA;NA;NA;NA;NA;1;4;NA;4;3;3
4;1;2;3;5;4;4;4;2;3;4;1;4;3;3;5;2;1;1;5
1;0;1;0;1;0;1;0;1;0;0;1;0;1;1;0;1;0;0;1
0;1;1;0;0;0;1;1;1;0;0;1;1;1;0;0;1;0;0;0
0;1;1;0;1;0;1;0;0;0;0;0;1;0;0;0;1;1;0;0
1;0;0;1;1;0;0;0;1;0;0;1;1;1;1;0;0;0;0;0
0;0;1;1;0;0;1;1;1;1;1;0;0;0;0;0;1;0;1;0
0;1;0;0;1;0;1;1;1;1;1;0;0;0;1;0;0;0;1;0
0;0;1;0;1;0;0;1;0;1;1;0;1;0;0;1;0;0;0;1
1;0;1;0;0;0;0;1;0;1;1;0;0;1;0;0;1;1;0;0
1;0;0;1;1;1;1;0;0;0;0;0;0;1;1;0;1;0;0;0
1;1;1;0;0;0;0;0;0;1;0;0;1;0;0;0;0;1;0;1
0;0;0;0;1;0;0;1;1;0;0;1;0;0;1;1;0;0;0;1
1;0;1;1;1;1;1;1;1;0;1;1;0;0;0;0;1;0;0;0
0;1;0;0;0;1;0;0;0;0;0;0;1;1;0;0;1;0;0;1
0;1;1;1;0;0;1;1;0;0;1;1;1;1;0;0;0;1;0;0
0;0;0;0;0;0;0;0;1;0;1;0;0;0;1;1;0;0;1;0
0;0;0;1;0;1;0;0;0;1;1;0;0;0;0;0;1;1;1;1
0;1;1;1;1;0;0;0;1;1;0;1;0;0;0;1;0;0;0;0
1;0;1;0;1;0;0;0;0;0;1;0;0;1;1;0;0;0;0;0
0;0;0;1;1;0;1;0;0;1;1;0;1;0;0;0;1;0;0;1
0;1;1;0;0;1;0;0;1;0;0;1;1;0;0;1;0;0;1;0
