3;20;20
4;6;7
2;2;2
NA;2;3;NA;5;1;1;3;NA;NA;5;3;4;4;NA;NA;3;NA;4;NA
1;1;2;1;4;2;5;5;4;4;2;2;3;1;3;3;4;5;1;NA
1;3;1;3;4;5;1;3;4;2;4;1;4;4;3;3;3;5;1;2
0;0;0;0;0;0;0;1;0;0;0;0;0;0;0;0;0;1;0;0
0;0;0;0;0;0;0;0;0;1;0;0;0;0;1;0;0;0;0;1
1;0;0;1;0;1;0;0;0;0;0;0;1;0;0;1;0;0;1;1
0;0;0;1;1;0;0;1;1;1;0;0;1;0;0;0;0;0;0;0
0;1;0;0;1;0;0;0;1;0;0;0;0;0;1;0;0;0;0;1
0;0;0;1;0;0;0;0;0;0;0;0;0;0;1;0;0;1;0;0
0;0;0;0;0;0;0;0;1;0;0;0;0;0;0;1;0;1;1;1
0;0;0;1;0;0;0;0;1;1;0;0;0;0;1;0;0;1;0;0
0;0;0;0;0;0;0;0;0;0;1;0;0;1;0;0;1;0;0;0
1;0;1;0;0;0;0;1;1;1;0;0;0;0;0;0;0;0;0;0
0;0;0;0;0;0;0;0;0;0;0;0;0;0;0;1;1;0;0;0
1;0;0;0;0;1;1;0;0;1;1;0;0;0;0;0;0;0;0;0
0;0;1;0;0;0;1;1;1;0;0;0;0;0;0;0;1;0;0;0
1;0;1;0;0;0;0;0;0;1;0;0;0;0;1;0;0;0;0;0
0;0;0;1;0;0;0;0;0;0;0;0;0;0;0;0;1;0;0;1
0;0;0;0;1;0;0;0;0;0;0;1;0;0;0;1;0;0;0;1
0;1;0;0;0;0;0;0;0;0;0;0;1;0;0;1;0;0;0;0
1;0;0;1;0;0;0;0;0;0;1;0;0;0;0;0;0;0;1;1
0;0;0;0;0;0;0;0;0;0;0;0;1;1;0;0;0;1;1;0
0;0;0;0;0;0;1;0;0;0;0;0;0;0;0;0;0;0;0;0
