3;20;20
7;2;8
2;2;1
5;3;4;5;2;1;NA;5;3;5;2;2;5;5;2;3;5;4;4;3
NA;NA;NA;NA;2;NA;NA;NA;NA;5;2;NA;NA;NA;NA;NA;NA;NA;NA;NA
2;1;5;2;3;3;1;1;3;4;5;1;3;5;2;3;2;5;3;3
0;0;0;0;0;0;1;0;0;0;0;0;1;0;0;0;0;1;0;0
0;0;0;0;1;0;0;0;0;0;0;0;0;0;0;0;1;0;0;0
1;1;0;1;0;0;0;0;0;0;0;0;0;0;1;0;1;0;1;1
0;0;0;0;0;0;1;0;1;1;0;1;0;0;0;0;0;0;0;0
0;0;0;1;0;0;0;0;0;0;0;1;0;0;0;0;0;1;0;1
0;1;1;0;0;1;0;0;0;0;0;0;0;0;0;0;0;0;0;0
0;0;0;0;0;0;0;0;0;0;0;0;1;1;0;1;1;0;0;0
0;0;0;0;0;0;0;0;0;0;0;0;0;0;0;0;0;1;0;0
1;0;1;0;0;0;0;1;1;0;0;0;0;0;0;0;0;0;1;0
0;1;0;0;0;1;1;0;0;0;0;0;0;0;0;0;0;0;0;0
0;0;0;1;0;0;1;0;0;0;0;0;0;0;1;0;0;0;1;1
1;0;0;1;0;0;0;0;0;0;0;1;0;1;0;0;0;0;0;1
1;0;0;1;0;0;1;0;0;1;0;0;0;1;1;0;0;1;1;0
0;0;0;0;0;0;1;0;0;0;1;0;0;0;0;0;0;0;0;0
0;1;0;0;0;1;1;1;0;0;0;0;0;0;1;0;0;0;0;0
0;1;0;0;0;0;0;0;0;0;0;0;0;0;1;1;0;0;0;0
1;0;1;0;0;0;0;1;0;0;0;0;0;0;0;0;0;0;0;0
0;0;0;0;1;0;1;0;0;0;0;1;0;0;0;0;1;0;0;0
0;1;0;0;0;1;0;0;0;0;0;0;0;0;0;0;0;0;0;1
1;0;0;0;0;0;0;0;1;0;0;1;1;0;0;1;0;0;0;1
