3;20;20
11;10;12
2;2;2
5;5;4;2;2;3;2;NA;1;2;5;5;1;4;4;5;4;4;2;4
5;2;1;1;5;4;1;NA;5;4;4;3;4;4;1;1;1;5;5;3
1;5;4;2;5;1;2;2;2;1;4;5;1;2;3;4;2;4;4;1
1;1;0;1;0;1;1;1;0;0;0;1;0;0;1;1;1;0;1;0
0;0;0;0;1;1;1;1;0;0;0;1;0;1;0;0;1;0;0;0
0;1;1;0;0;1;0;0;0;1;1;0;0;0;0;1;0;0;0;1
0;0;0;1;0;0;1;1;1;1;1;0;1;0;0;0;0;1;0;1
0;0;0;0;0;1;0;1;0;0;0;0;0;0;0;1;0;1;0;0
0;1;0;0;1;0;0;1;0;0;0;1;0;0;0;0;0;0;0;0
0;0;0;1;1;0;0;1;1;1;0;1;0;0;0;0;1;1;0;0
0;0;0;0;0;1;1;1;1;0;0;0;0;0;0;0;0;1;0;1
1;1;0;0;0;0;0;0;0;0;1;1;0;1;0;0;0;1;0;0
0;0;1;0;0;1;0;0;0;0;0;0;0;1;1;0;0;0;0;1
0;0;1;0;0;0;0;0;1;0;0;0;0;0;1;0;0;0;0;0
0;0;0;0;1;0;1;1;0;1;1;0;1;0;0;0;1;0;1;0
0;0;0;0;0;1;0;1;1;0;0;1;0;1;0;0;1;0;1;1
0;0;0;1;1;0;0;0;0;1;0;0;1;0;1;0;0;1;0;0
0;0;0;0;0;0;0;0;1;0;0;0;0;1;0;0;0;0;0;1
0;0;1;0;0;0;0;1;0;0;0;0;0;1;1;0;0;0;1;0
0;0;0;0;0;0;0;1;0;0;0;0;0;0;0;0;0;0;0;0
0;0;0;0;1;0;1;0;0;1;1;0;1;0;0;1;0;1;0;0
0;0;0;0;0;1;1;1;0;0;1;1;0;0;0;1;0;0;1;0
0;0;1;0;0;0;0;0;0;1;0;1;1;0;0;0;0;0;0;1
