2;15;15
14;11
2;2
2;4;5;2;3;1;5;1;4;5;1;1;5;5;2
1;5;4;2;1;1;3;3;2;2;5;3;5;2;4
0;0;1;1;0;0;1;1;1;1;0;1;1;1;0
0;1;1;1;1;0;0;0;1;1;1;1;0;0;1
0;1;1;1;1;0;0;1;1;1;0;1;1;1;0
0;0;0;1;1;0;1;0;0;0;1;1;0;1;1
1;1;1;1;1;1;0;1;1;0;0;1;1;0;1
1;0;1;0;0;0;1;0;1;1;1;1;0;1;0
0;1;0;1;0;1;0;0;1;0;1;1;1;1;1
0;1;1;1;1;0;1;0;1;1;1;1;0;0;1
1;0;0;0;0;0;1;0;0;0;1;0;1;0;0
0;0;0;1;1;0;1;0;1;0;0;1;0;0;1
0;0;1;0;0;0;0;0;0;1;1;1;1;0;1
1;0;1;0;0;1;1;0;0;0;0;0;0;0;1
1;1;1;0;1;1;0;1;0;0;0;0;0;0;1
0;0;1;1;0;1;0;0;1;0;1;0;0;0;0
0;1;1;0;1;0;1;0;1;0;0;0;0;1;1
