2;15;15
11;14
1;1
1;3;1;1;4;1;4;3;3;4;2;3;2;3;1
2;1;1;1;4;1;2;5;3;3;4;2;3;4;5
0;0;1;0;1;1;1;1;1;0;1;0;1;1;0
0;1;1;0;0;0;1;1;0;1;0;0;0;0;0
1;1;0;0;0;0;1;0;1;0;0;1;1;0;0
0;0;1;0;1;0;0;1;1;1;1;1;1;1;1
1;0;1;1;0;1;0;1;0;0;1;1;0;0;0
0;1;0;1;1;1;0;0;0;1;1;0;0;1;0
0;0;0;0;0;1;0;0;1;1;1;1;0;0;1
0;0;0;0;0;0;1;0;0;1;0;1;0;0;1
0;0;0;1;0;0;1;1;1;1;1;0;0;1;0
1;1;1;1;1;0;1;0;0;1;0;0;0;1;0
0;0;1;1;0;1;1;1;1;1;1;1;1;0;1
1;0;0;0;1;0;1;1;0;0;0;0;0;1;1
1;1;0;0;1;1;0;0;1;1;1;1;1;0;0
1;1;0;1;1;0;1;1;0;1;1;1;0;0;0
0;1;1;0;0;1;1;1;0;1;0;1;1;0;1
