2;15;15
4;8
2;1
NA;NA;NA;NA;NA;NA;5;NA;2;NA;NA;NA;NA;NA;NA
3;3;1;4;3;1;4;5;1;3;2;4;1;4;1
0;0;0;0;0;1;1;1;0;0;0;0;1;0;0
0;0;0;1;0;0;0;0;0;1;0;0;1;1;0
0;1;0;0;1;1;0;0;1;1;1;1;0;0;0
0;0;0;1;1;0;0;1;0;1;0;0;1;0;0
1;1;0;0;1;0;0;1;0;1;1;0;1;1;0
1;1;0;0;0;1;0;0;0;0;0;1;0;0;1
0;0;1;1;0;1;0;0;0;0;0;1;0;1;0
0;0;1;1;1;1;1;0;0;1;0;0;0;1;1
1;1;1;0;0;1;1;1;0;0;0;0;1;1;1
0;0;1;1;0;0;0;0;0;0;1;1;1;1;0
1;1;0;0;1;0;0;1;0;0;0;0;1;0;0
0;1;1;1;1;1;0;1;1;0;1;1;1;0;1
1;1;0;0;0;0;0;0;1;0;1;0;0;0;0
0;0;1;1;0;1;0;1;0;1;1;0;0;0;0
0;0;0;0;0;0;1;0;1;0;0;0;0;0;1
