2;15;15
7;6
1;1
3;5;2;5;4;5;2;5;5;5;2;3;3;4;3
2;1;3;1;5;3;3;4;5;2;3;4;5;1;2
0;0;0;1;0;0;0;0;0;0;1;0;0;0;0
0;0;0;1;0;0;0;1;0;0;1;0;0;0;0
0;0;0;0;0;0;0;0;0;0;0;1;0;0;1
0;0;0;0;0;1;0;0;0;1;0;0;1;0;0
0;0;0;0;0;0;0;1;1;1;0;0;0;0;0
0;0;0;1;1;1;0;0;0;0;0;0;0;0;0
0;0;0;0;0;1;0;0;0;0;0;1;0;0;1
0;1;0;1;0;0;0;1;1;0;0;0;0;0;0
0;0;1;0;1;1;0;0;0;0;0;0;0;0;0
0;0;0;0;0;0;1;1;1;1;0;0;0;0;0
0;0;0;0;0;0;0;0;0;0;0;0;0;0;1
0;0;1;1;0;1;0;0;1;0;0;0;1;1;0
1;0;0;0;0;0;0;0;0;0;0;0;0;0;1
0;0;0;0;1;0;0;0;0;0;0;0;0;0;0
0;1;0;1;0;0;0;0;0;1;0;1;0;0;1
