2;20;10
3;3
2;1
2;4;2;4;2;1;2;3;4;3;2;5;3;5;3;4;3;2;5;3
3;3;1;2;1;5;3;4;3;3;4;4;5;5;5;1;1;5;3;3
0;0;0;0;0;0;0;0;0;0;0;1;1;1;0;0;0;1;0;0
1;0;0;0;0;1;0;0;0;0;1;0;0;0;0;1;0;0;0;0
1;1;0;0;0;0;0;0;0;1;0;0;0;0;1;0;0;0;0;0
0;0;0;0;0;0;0;0;0;0;1;0;0;0;0;0;1;0;0;0
0;0;0;1;0;0;1;1;0;0;0;0;0;0;1;1;0;0;0;0
0;0;0;1;1;0;1;0;1;0;0;0;0;0;1;0;0;0;1;0
0;0;0;0;0;0;0;0;0;0;0;0;0;1;0;0;0;1;0;0
1;0;0;0;1;0;0;1;0;1;1;0;0;0;0;1;0;0;1;1
0;0;0;0;0;1;1;0;0;0;0;0;0;0;0;0;0;0;0;0
0;0;1;0;0;0;0;0;0;0;0;0;0;0;0;0;1;0;1;0
