2;20;10
5;7
2;2
3;4;2;2;1;5;2;NA;NA;5;1;NA;NA;1;4;1;3;5;1;5
5;3;3;2;3;3;1;5;4;5;4;4;3;4;2;1;5;2;4;3
1;1;0;1;0;0;0;1;0;0;0;0;0;0;0;0;0;1;1;0
0;1;0;0;0;0;0;1;1;0;1;0;1;0;1;0;0;1;0;0
0;0;0;0;0;0;0;0;0;0;0;0;1;0;0;1;1;0;1;0
1;0;0;0;0;0;0;1;1;0;1;1;0;0;0;0;0;0;0;1
0;0;1;1;0;0;0;1;0;1;1;1;0;0;1;1;0;1;0;0
0;0;1;1;1;1;1;1;1;0;1;1;0;0;0;0;0;1;1;0
1;0;0;1;0;1;0;0;1;0;1;0;1;1;1;1;0;0;0;1
1;0;1;1;0;0;0;1;1;1;0;1;1;0;1;0;0;0;1;0
1;0;0;0;0;1;0;0;0;0;0;1;1;0;0;1;0;0;0;1
0;1;0;0;1;0;1;1;1;0;0;1;1;0;0;1;1;0;1;1
