2;20;10
6;7
2;1
NA;5;2;2;3;1;4;4;2;1;5;2;1;2;1;2;4;1;3;1
1;4;1;4;1;4;3;2;3;1;5;3;1;2;3;1;1;4;2;2
0;0;1;1;0;0;0;0;0;0;1;0;1;0;0;1;0;0;0;0
0;1;0;0;1;1;1;0;1;1;0;0;0;0;0;0;1;0;1;1
1;1;0;1;1;0;0;0;0;0;0;1;0;1;1;0;1;1;0;0
1;0;0;0;1;1;1;0;0;0;0;0;0;1;0;0;1;0;0;1
1;0;0;0;0;0;0;0;1;0;0;1;0;1;0;0;1;0;0;0
1;1;0;0;0;0;1;1;0;0;0;0;0;0;0;0;0;0;1;1
0;1;1;0;0;1;0;1;0;0;1;1;1;0;1;1;0;0;1;0
1;0;1;0;0;0;0;0;0;1;1;1;1;1;0;1;1;1;1;1
1;1;0;1;0;0;0;1;0;0;1;1;0;0;1;1;1;1;1;0
1;0;1;0;1;0;0;0;1;1;0;0;0;0;0;0;0;0;0;1
