2;10;10
7;6
1;2
1;2;5;4;1;3;2;3;4;3
5;2;5;2;3;5;2;4;4;5
1;0;1;0;0;0;0;0;1;1
0;0;1;1;0;0;0;0;1;1
1;0;0;0;1;0;0;0;0;0
1;0;0;0;1;1;0;1;0;0
0;0;0;0;1;0;0;0;0;1
0;0;0;1;0;0;0;0;0;1
0;0;0;1;1;0;1;0;0;0
0;1;0;1;0;1;0;0;0;0
1;0;1;0;1;0;1;0;0;0
0;1;0;0;1;0;0;0;0;0
