2;10;10
10;7
1;2
3;5;4;2;1;1;3;3;2;4
1;4;5;2;3;1;2;2;2;3
0;1;1;1;1;0;0;1;1;1
0;0;0;1;1;1;0;1;1;1
0;0;0;1;0;1;0;1;1;0
0;1;1;0;0;1;0;1;0;0
1;1;0;0;1;1;1;0;1;0
0;1;0;0;0;0;1;0;0;1
1;0;1;0;1;1;1;1;1;1
1;0;0;1;0;0;0;0;1;0
1;0;0;1;0;0;0;0;1;0
0;0;0;1;1;1;1;1;0;1
