2;10;10
4;5
2;1
5;4;1;4;3;5;3;3;NA;5
1;5;1;3;5;5;4;1;1;5
0;1;0;0;0;0;0;0;0;0
0;0;0;0;0;1;0;1;0;0
0;0;0;0;0;0;1;0;1;0
0;0;1;0;0;0;0;1;0;0
0;0;0;0;0;1;0;0;0;0
0;0;0;0;0;0;0;0;1;0
0;0;0;0;0;0;0;0;1;1
1;1;0;0;0;0;0;0;0;0
0;0;0;1;0;0;0;0;1;1
1;0;0;1;1;0;0;0;1;0
