2;10;10
2;8
1;2
NA;NA;NA;NA;NA;NA;NA;NA;1;NA
3;4;5;2;4;2;3;5;4;2
1;0;0;0;0;0;0;0;0;1
1;0;1;1;1;0;1;1;0;1
0;1;1;1;0;0;0;0;0;1
0;1;0;0;1;1;0;1;0;1
0;1;1;0;0;1;1;0;1;0
1;0;1;0;0;1;1;0;0;0
1;0;1;1;1;0;1;1;0;0
0;1;0;0;0;0;0;1;1;0
0;0;0;0;0;1;0;0;0;1
0;0;0;0;1;0;0;0;0;1
