2;10;10
6;7
1;2
5;5;3;2;5;1;NA;3;4;2
4;4;3;4;3;2;3;1;5;3
1;1;1;0;1;1;1;1;1;0
0;0;0;0;0;0;1;1;0;1
0;0;0;1;1;0;0;0;1;0
1;1;0;1;1;0;1;0;0;1
0;1;1;1;0;1;1;1;1;0
1;0;0;0;0;0;1;1;0;1
1;1;0;1;1;0;0;0;1;1
0;0;1;1;0;0;0;1;0;1
1;1;0;0;0;0;1;0;1;0
1;0;1;1;0;0;1;0;1;0
