2;10;10
6;5
1;2
4;3;5;4;5;5;1;4;5;1
1;3;1;3;4;3;5;3;3;1
0;0;0;1;1;1;0;0;1;1
1;0;0;0;0;0;0;0;0;0
0;1;1;0;0;1;0;0;0;0
0;0;1;0;0;0;0;0;0;0
0;0;1;0;0;0;0;1;0;0
0;0;0;1;1;1;0;0;0;1
0;0;0;0;1;1;0;0;0;0
0;0;0;1;0;0;0;0;0;0
0;1;0;0;1;1;1;0;0;1
1;0;1;0;0;0;1;1;1;1
