2;10;10
6;9
2;1
1;5;5;4;3;1;3;2;4;NA
5;2;4;4;1;4;5;1;4;5
0;1;0;1;0;1;0;1;0;0
0;1;0;1;0;1;1;1;1;1
1;0;0;0;0;1;1;0;1;1
0;0;0;1;1;1;1;0;0;0
0;1;1;0;0;0;0;0;0;0
1;1;1;0;0;0;0;0;1;1
1;0;0;1;1;1;0;0;0;1
1;1;0;0;0;0;0;1;0;1
0;1;1;1;1;0;1;1;1;1
1;0;1;1;1;0;0;0;1;1
