2;10;10
6;8
2;1
3;3;2;1;3;2;5;4;1;4
2;2;5;1;5;5;1;2;5;5
0;0;0;1;1;0;1;0;1;1
1;1;0;0;1;1;1;1;0;0
1;0;1;0;1;0;0;1;0;0
1;1;1;1;1;0;0;1;0;1
1;1;1;0;1;1;0;0;0;1
0;1;0;0;0;1;0;0;1;1
0;0;0;1;0;0;1;0;1;1
0;0;1;1;0;0;1;1;1;0
0;1;1;0;1;0;0;1;1;0
0;0;0;0;0;1;1;1;1;0
