3;15;10
4;4;5
1;1;1
5;4;5;5;2;1;4;3;5;1;3;4;3;2;5
1;1;4;2;1;5;3;3;5;1;2;4;1;2;3
2;2;1;2;5;5;2;1;5;2;1;2;5;1;3
0;0;0;0;0;0;0;0;1;0;0;0;0;1;0
0;0;0;1;0;0;0;1;0;0;0;1;0;0;0
0;1;0;0;0;0;0;1;1;0;0;0;0;0;0
0;1;0;0;1;1;0;0;0;1;0;0;0;1;0
1;0;0;0;0;0;1;1;1;1;1;1;1;1;0
1;0;0;0;0;0;1;1;0;0;1;0;0;0;0
1;0;0;1;0;0;0;0;0;1;0;1;0;0;0
0;0;1;1;0;0;1;0;0;1;0;1;1;0;1
1;0;1;0;1;0;0;0;1;0;1;0;1;0;0
0;1;1;0;0;0;0;0;0;0;0;0;0;0;0
