3;15;10
3;2;7
1;1;1
NA;NA;NA;NA;NA;NA;NA;NA;NA;NA;NA;NA;1;NA;NA
NA;NA;NA;NA;NA;NA;NA;NA;NA;NA;NA;NA;2;NA;NA
4;4;4;4;4;5;4;1;3;2;1;3;2;2;2
1;0;1;1;0;0;0;1;1;1;1;1;0;1;0
1;1;1;0;0;0;1;1;1;0;1;1;0;0;0
1;0;0;1;1;1;1;0;0;1;1;0;0;1;1
0;1;0;0;0;0;1;0;0;1;0;1;0;1;0
1;1;0;0;1;1;0;0;1;1;1;1;0;0;0
0;1;1;0;1;0;1;1;1;1;1;0;0;1;1
0;0;0;1;0;1;1;1;0;1;0;1;0;0;1
0;1;1;1;1;1;0;0;0;0;1;0;0;0;1
1;0;0;0;0;1;0;0;0;1;0;1;1;1;0
1;0;1;0;1;0;0;0;0;0;0;1;1;1;0
