3;15;10
2;7;8
2;2;2
NA;NA;NA;NA;NA;NA;1;NA;NA;NA;NA;NA;NA;NA;NA
3;NA;3;2;5;4;3;5;3;2;3;NA;3;1;NA
5;2;5;2;1;2;3;4;1;4;3;1;3;2;2
0;1;0;1;1;1;0;1;0;1;0;1;0;0;1
0;1;1;0;1;1;0;1;0;0;0;1;0;0;1
1;1;1;0;1;1;1;0;1;1;0;0;1;1;1
0;1;0;0;1;0;0;0;1;0;0;1;0;0;1
1;1;0;0;0;0;0;0;0;0;1;1;0;0;1
0;0;1;1;0;1;0;0;0;1;1;1;1;0;0
0;1;0;1;1;0;0;1;1;0;0;1;1;1;1
0;0;0;1;1;0;0;0;1;1;0;0;1;1;1
1;1;1;0;0;0;0;0;1;0;1;1;1;1;1
0;1;0;1;1;1;0;0;0;1;0;1;1;0;0
