3;15;10
3;3;5
1;1;2
4;NA;5;3;4;NA;4;1;3;3;3;4;1;1;2
1;NA;4;3;1;NA;1;1;1;4;1;4;5;4;2
5;2;4;2;5;5;1;1;4;5;4;1;4;3;4
0;1;1;1;0;0;0;0;0;0;0;0;0;0;1
0;1;0;0;0;1;1;0;0;0;0;0;0;1;0
0;0;0;0;1;0;0;0;0;0;0;1;0;0;0
0;0;0;0;0;1;0;0;0;0;0;0;0;1;1
1;1;1;0;0;1;0;0;1;0;0;0;0;0;0
0;0;0;0;1;0;0;0;1;0;0;0;0;0;0
0;1;0;0;0;1;0;0;0;0;1;0;0;0;0
1;1;0;0;0;0;1;0;0;0;0;0;0;0;0
0;0;0;0;0;0;0;1;0;0;0;0;0;0;1
0;0;0;0;0;0;0;0;0;1;0;0;1;0;0
