3;15;10
3;2;6
1;1;2
5;NA;4;4;5;3;NA;NA;3;NA;NA;4;5;1;NA
NA;NA;1;1;5;NA;NA;NA;1;NA;NA;NA;NA;1;NA
3;3;5;5;5;1;3;5;3;3;5;5;1;4;5
1;0;0;0;0;0;0;0;0;0;0;1;1;0;1
1;1;0;0;0;0;0;1;0;1;0;0;0;0;1
0;0;1;1;0;1;1;1;0;1;1;0;0;0;0
0;0;0;0;1;0;0;1;1;0;0;1;0;0;0
1;0;0;0;0;0;0;0;0;1;0;0;1;0;0
0;0;0;0;0;0;0;0;0;0;1;0;1;0;1
0;1;1;0;0;0;1;0;0;1;0;0;0;1;0
0;0;0;0;0;1;1;1;0;0;0;1;0;0;0
0;1;0;0;0;0;0;1;1;0;1;0;0;0;1
0;1;0;0;0;1;1;1;0;0;1;0;0;0;0
