3;15;10
4;4;4
2;2;2
2;2;2;1;4;5;3;4;1;2;1;2;4;4;1
2;5;2;2;2;2;2;5;2;2;1;3;4;2;1
4;2;3;3;4;2;2;4;5;3;2;5;1;1;2
0;0;1;0;0;0;0;0;1;0;0;0;0;0;0
1;0;0;0;0;1;0;0;0;0;0;0;0;0;0
0;0;0;0;0;1;0;0;0;0;0;1;1;0;0
0;0;0;0;0;1;0;1;0;1;0;0;0;0;0
0;1;1;0;0;0;0;0;0;0;1;0;0;0;0
0;0;0;0;0;0;0;0;1;0;0;0;0;0;1
0;0;0;0;1;0;0;1;0;0;0;0;0;0;1
0;0;0;1;0;0;1;0;1;0;0;0;1;1;0
0;0;0;1;1;1;0;0;0;0;0;1;0;1;0
0;0;0;1;0;0;0;0;0;0;1;0;0;0;0
