3;15;10
7;10;9
2;1;2
3;4;4;2;5;4;3;2;4;2;1;2;1;1;5
3;4;5;3;2;1;3;1;1;1;1;1;1;4;4
5;3;3;2;2;5;5;3;4;4;2;4;3;4;5
1;0;0;0;1;0;0;1;1;0;0;1;0;0;0
1;1;0;0;1;0;1;0;1;0;0;0;1;1;0
1;1;0;0;1;1;0;1;0;0;0;1;1;1;1
0;0;0;0;1;1;0;0;0;0;1;1;1;0;1
0;1;0;0;1;0;1;1;0;1;0;1;0;1;0
0;1;1;1;1;0;1;1;1;1;0;0;1;0;0
1;1;0;0;0;1;1;0;1;0;1;1;1;1;0
1;1;0;1;1;0;1;0;1;1;1;1;0;1;0
0;1;1;1;0;1;0;0;0;0;1;0;0;1;0
0;0;1;0;0;1;1;1;0;1;1;0;0;0;1
