3;15;10
1;5;5
1;1;1
4;NA;NA;NA;2;NA;3;NA;NA;1;3;3;NA;3;2
4;3;5;4;5;1;3;3;1;1;4;2;3;1;2
1;5;2;2;1;5;1;1;1;2;1;5;4;3;4
0;0;0;0;0;0;0;0;0;1;0;0;0;0;0
0;0;0;1;0;1;0;1;0;0;1;0;0;0;0
0;1;0;0;0;0;0;0;0;0;0;0;1;0;0
0;1;0;0;0;0;1;1;1;0;0;0;0;0;0
0;1;0;0;0;0;0;0;0;0;0;0;1;0;0
0;0;0;0;0;0;0;0;1;0;0;0;1;1;0
0;0;0;0;1;1;0;0;0;0;0;0;0;0;0
0;0;0;0;0;0;0;1;0;0;0;0;0;0;1
0;1;1;1;0;1;0;1;0;0;0;0;0;0;0
1;1;1;0;0;0;0;0;1;0;0;1;0;0;0
