3;15;10
1;3;4
1;1;2
NA;NA;NA;NA;3;NA;2;5;NA;5;2;NA;3;NA;NA
NA;1;5;2;4;5;1;2;5;4;2;4;1;2;2
3;1;4;1;5;5;2;3;5;1;2;4;2;3;2
0;0;0;0;1;0;0;0;0;0;0;0;0;0;0
0;0;0;1;0;0;0;1;0;0;0;0;0;0;0
0;0;1;0;0;0;0;0;0;0;0;1;0;0;0
0;0;1;0;0;1;0;0;0;0;0;0;0;1;0
0;0;1;0;0;0;1;0;0;1;0;0;0;0;1
1;0;0;0;0;1;0;0;0;0;0;0;0;1;1
1;0;0;0;0;0;0;0;1;0;0;0;0;0;0
0;1;0;1;0;0;0;0;0;0;0;1;1;0;0
1;1;0;0;0;1;0;0;1;0;1;0;0;0;0
1;0;0;0;0;0;0;0;0;0;0;1;0;1;0
