3;15;10
9;3;7
1;2;1
1;1;4;5;1;1;4;3;5;4;4;1;4;3;3
NA;NA;NA;NA;NA;NA;NA;1;NA;NA;NA;2;NA;NA;NA
2;3;5;4;3;4;4;2;1;1;2;2;2;3;1
0;0;1;0;0;0;1;0;0;0;0;1;0;0;1
0;1;1;1;1;1;1;0;1;1;1;0;1;0;0
1;0;0;1;0;0;1;0;1;0;1;1;1;0;0
1;0;0;0;0;0;1;0;0;1;0;0;0;1;1
1;1;0;0;1;1;0;1;1;1;1;0;1;0;1
0;0;0;1;0;0;0;0;1;0;1;0;1;0;1
1;1;1;0;1;1;1;0;1;1;0;0;1;1;1
1;0;1;1;0;0;0;1;0;1;1;0;0;1;0
1;0;0;1;0;0;1;1;1;1;0;1;1;0;1
0;1;1;0;1;1;1;0;0;1;0;0;0;1;0
