3;15;10
2;6;7
2;2;1
NA;NA;NA;NA;1;NA;NA;NA;NA;3;NA;NA;NA;NA;NA
4;5;2;NA;4;5;2;1;4;2;5;5;4;2;3
4;2;1;2;4;4;5;2;2;3;3;1;1;5;2
0;1;1;1;0;0;1;0;0;0;1;0;0;0;0
0;0;1;1;0;0;0;0;1;0;1;0;0;1;1
1;1;0;1;0;1;0;0;1;1;0;1;0;0;1
1;0;0;1;0;1;0;0;0;0;1;0;0;1;1
1;1;1;1;0;0;1;0;0;1;0;1;0;0;0
0;1;0;0;1;0;1;0;0;0;0;1;0;1;1
1;0;1;0;0;0;0;1;0;0;0;0;1;0;1
0;0;1;1;0;1;0;1;0;0;0;1;0;0;0
1;0;0;1;0;0;0;0;1;0;1;0;1;1;1
1;0;0;0;1;1;0;1;0;0;0;0;1;0;0
