3;15;15;NA;NA;NA;NA;NA;NA;NA;NA;NA;NA;NA;NA
6;7;5;NA;NA;NA;NA;NA;NA;NA;NA;NA;NA;NA;NA
3;3;3;NA;NA;NA;NA;NA;NA;NA;NA;NA;NA;NA;NA
9;6;9;9;10;7;3;6;3;3;7;5;5;3;8
7;10;2;1;5;10;6;7;10;10;6;9;7;8;6
9;7;5;7;7;1;7;1;8;9;8;7;6;6;5
0;0;0;0;1;1;1;1;1;1;1;0;0;1;0
1;0;0;0;1;0;1;0;0;0;0;1;0;0;1
1;0;1;1;0;0;0;1;0;0;0;0;0;0;0
0;0;1;0;1;0;1;0;0;1;0;1;1;1;1
1;0;0;0;0;1;0;0;1;1;0;0;1;1;0
0;0;0;1;0;0;0;0;1;1;0;0;1;0;0
0;1;0;0;0;1;1;1;0;0;1;0;0;0;0
1;1;0;0;0;0;0;0;0;0;0;0;0;0;0
1;1;1;1;1;0;0;0;0;0;1;1;0;1;0
0;0;1;0;1;1;0;1;0;1;0;0;0;1;1
0;0;0;1;0;0;1;1;1;0;0;0;0;1;0
0;0;0;0;0;1;1;0;1;1;0;1;0;0;1
1;1;0;0;1;1;0;1;0;1;1;0;1;0;0
0;0;0;0;0;1;0;1;0;0;0;0;1;0;0
0;1;0;0;0;0;0;0;1;0;1;0;0;0;0
