3;15;15;NA;NA;NA;NA;NA;NA;NA;NA;NA;NA;NA;NA
5;6;6;NA;NA;NA;NA;NA;NA;NA;NA;NA;NA;NA;NA
4;3;4;NA;NA;NA;NA;NA;NA;NA;NA;NA;NA;NA;NA
3;1;2;9;8;8;8;10;2;5;9;7;9;4;7
6;7;3;6;9;6;4;8;3;2;5;7;2;1;10
5;7;1;3;2;6;5;10;1;4;8;4;5;8;1
0;1;0;0;0;1;0;0;0;0;1;0;0;0;1
0;0;1;0;1;0;0;0;0;0;0;0;0;0;0
0;0;1;1;0;0;0;0;1;0;0;0;0;1;0
0;0;0;0;0;0;0;1;1;0;0;0;0;1;0
0;0;0;0;0;0;0;1;1;0;1;0;1;0;0
0;0;0;0;0;0;0;0;0;0;0;0;0;0;0
0;0;0;0;0;0;1;0;0;0;0;1;0;0;0
0;0;0;1;1;0;0;0;0;0;0;0;0;1;0
0;0;0;0;1;0;1;0;0;0;0;0;0;0;0
1;0;0;0;0;1;0;0;0;0;0;0;0;0;0
0;1;0;0;0;1;0;0;0;1;1;0;0;0;0
0;0;0;0;0;0;0;0;0;0;0;0;0;0;0
0;0;0;1;0;0;0;0;0;1;0;0;1;0;1
0;0;0;0;0;0;0;0;0;0;0;1;0;0;0
1;1;0;0;0;0;0;1;0;0;0;1;0;0;0
