3;15;15;NA;NA;NA;NA;NA;NA;NA;NA;NA;NA;NA;NA
6;7;5;NA;NA;NA;NA;NA;NA;NA;NA;NA;NA;NA;NA
3;3;3;NA;NA;NA;NA;NA;NA;NA;NA;NA;NA;NA;NA
1;2;9;8;5;10;3;3;4;3;4;10;3;1;9
1;10;9;7;9;7;1;5;6;10;8;10;7;4;4
6;10;1;4;2;2;7;6;3;1;1;6;1;9;3
1;1;1;0;0;0;0;1;0;0;0;0;1;1;0
0;0;0;0;0;0;1;0;1;0;0;0;0;0;0
0;1;0;1;1;0;1;0;0;0;0;0;1;1;0
0;0;0;0;0;0;0;0;1;1;0;0;0;1;0
0;1;0;1;1;1;0;0;1;0;1;0;0;1;0
1;0;0;0;1;0;1;1;1;0;0;0;0;0;1
0;0;1;0;0;0;1;0;0;1;0;0;0;0;1
0;0;0;0;0;0;0;0;0;1;0;0;1;0;0
1;0;1;0;0;1;0;0;0;1;1;1;0;0;1
0;0;0;0;0;1;1;1;0;0;0;1;1;1;0
1;1;1;0;1;1;0;1;0;0;0;0;0;0;0
0;0;0;1;1;1;0;0;1;0;1;1;1;0;0
0;1;1;1;0;0;0;1;1;0;1;1;0;0;1
0;0;1;1;0;1;0;1;0;0;0;0;1;0;1
0;1;0;0;1;0;1;0;0;1;1;1;0;1;1
