2;5;15;NA;NA
6;5;NA;NA;NA
2;2;NA;NA;NA
6;5;7;6;8
7;10;6;1;5
0;0;1;0;0
0;1;0;0;0
0;0;0;0;1
1;0;0;0;0
0;1;0;0;0
0;0;0;0;0
0;0;0;0;0
0;0;0;0;0
1;0;1;0;0
0;0;0;1;0
0;0;1;0;0
1;0;0;0;1
0;1;0;1;0
0;0;0;0;0
0;0;0;0;0
