2;5;15;NA;NA
5;5;NA;NA;NA
4;3;NA;NA;NA
1;7;5;5;5
9;2;1;6;10
0;1;0;1;0
0;0;0;0;1
1;0;0;0;0
1;1;1;0;0
0;0;0;0;0
0;0;0;1;0
0;0;1;0;0
1;0;1;0;0
0;0;0;0;0
0;0;1;1;1
0;0;0;1;1
1;0;0;0;1
0;1;0;0;0
0;0;0;0;0
1;0;0;1;0
