2;5;15;NA;NA
5;5;NA;NA;NA
4;3;NA;NA;NA
3;4;9;3;6
9;9;1;4;6
0;0;0;0;0
0;1;0;0;0
0;0;0;0;1
1;0;1;0;0
0;0;0;0;1
0;0;0;1;0
0;0;0;1;0
0;1;0;1;1
0;0;1;0;0
0;0;0;0;0
1;0;0;1;1
1;1;0;0;0
0;0;1;0;0
1;1;0;0;0
0;1;1;0;0
