3;20;10
6;6;10
2;1;2
1;NA;4;3;3;2;3;1;1;1;NA;2;4;3;3;2;3;5;5;5
5;NA;4;3;3;2;4;2;5;5;NA;5;2;3;1;4;3;2;3;4
2;5;2;5;3;1;4;3;3;5;5;1;1;2;2;2;1;4;2;5
0;0;0;0;0;0;1;0;1;1;0;0;0;1;0;0;1;0;0;1
0;1;1;0;0;0;0;1;0;1;1;1;0;0;1;0;0;1;1;0
0;0;0;1;1;1;0;0;1;1;0;1;1;1;0;1;0;1;1;0
0;1;1;1;0;1;0;1;1;1;1;0;0;1;1;1;1;0;1;1
1;0;0;0;0;0;1;0;0;1;1;1;0;0;0;0;1;1;0;1
0;1;1;1;1;1;1;0;0;0;1;1;0;0;1;0;1;0;1;0
1;1;1;1;0;1;0;0;0;0;1;1;1;0;1;1;1;1;0;1
1;1;1;0;1;0;0;1;1;0;0;0;0;1;0;0;0;1;1;0
0;1;1;0;1;0;1;1;1;0;1;0;1;0;0;1;0;1;0;1
1;1;0;0;1;0;0;0;0;1;1;0;0;1;0;1;0;0;1;0
