3;20;10
7;8;7
1;2;1
4;1;1;2;5;2;4;2;2;4;3;3;2;3;5;3;5;2;1;1
3;2;5;4;1;3;5;2;1;3;2;1;2;2;1;2;3;3;5;1
3;4;5;1;4;2;3;2;5;1;1;1;4;5;5;3;2;2;2;3
1;0;0;1;1;0;1;1;1;0;0;0;0;0;1;1;0;0;1;0
0;1;1;0;1;0;0;1;0;0;0;0;0;0;0;0;1;0;0;0
0;0;1;1;0;0;0;0;1;0;0;0;0;1;0;0;0;0;0;1
0;0;0;0;1;0;0;1;0;1;0;0;0;1;0;0;1;0;1;1
0;0;0;1;1;0;0;0;0;0;0;0;0;1;0;1;0;0;0;0
0;0;0;0;1;0;1;0;0;0;0;0;1;1;0;0;0;1;0;1
1;0;0;1;0;0;0;0;1;0;0;0;0;0;0;0;0;0;0;0
0;0;1;1;0;1;0;1;0;0;1;1;0;0;0;0;1;0;0;1
0;0;1;0;1;0;1;0;0;1;0;0;0;0;1;0;0;0;1;0
0;0;0;0;1;0;0;0;0;0;1;1;1;1;0;0;1;1;0;0
