3;20;10
2;2;4
1;2;1
3;3;2;NA;4;3;NA;2;1;4;1;1;3;2;NA;2;1;NA;5;NA
3;2;3;NA;4;2;NA;5;3;1;2;4;1;5;NA;5;3;NA;4;NA
3;2;3;2;3;3;1;3;3;3;1;4;1;2;3;1;1;3;2;5
0;0;0;0;0;0;1;1;0;0;0;0;0;0;0;0;0;0;0;0
0;1;0;1;0;0;1;0;1;0;0;1;0;0;0;1;0;1;0;0
0;0;0;1;0;0;0;0;0;1;1;0;0;0;1;0;0;1;1;0
0;0;0;1;0;0;0;0;0;0;0;0;1;0;0;0;0;0;0;1
0;0;0;0;0;0;0;0;0;1;0;0;1;0;0;0;0;1;0;1
1;0;1;1;0;0;0;0;0;0;0;0;0;0;0;0;0;0;0;0
0;0;0;0;0;0;0;0;0;0;0;0;0;1;1;0;1;0;0;0
0;0;0;0;0;0;1;0;0;0;0;1;0;0;1;0;0;0;0;1
0;1;1;0;1;0;0;0;1;0;0;0;0;0;0;0;0;0;0;1
0;0;0;0;1;1;1;0;0;0;0;0;0;0;0;0;0;0;0;0
