3;20;10
5;6;8
2;2;1
NA;5;NA;4;4;NA;NA;4;NA;1;NA;NA;NA;3;NA;5;1;3;1;NA
4;4;2;5;5;NA;NA;4;4;1;1;5;2;3;2;1;1;1;3;NA
4;2;3;1;2;2;4;5;4;2;3;4;4;1;3;3;3;2;1;2
0;0;0;0;1;1;1;1;1;0;1;0;1;0;1;0;0;0;0;1
1;0;1;1;1;1;1;1;1;1;1;0;1;0;0;1;0;0;0;1
1;1;1;0;1;0;1;0;0;1;0;1;1;0;0;0;0;0;0;1
1;0;1;0;0;1;1;0;0;0;0;1;0;0;0;0;0;1;0;1
0;0;0;0;0;1;1;0;1;0;1;1;1;0;1;0;0;0;0;0
1;1;1;1;1;1;1;0;1;0;1;1;1;1;1;1;0;1;0;0
1;1;0;0;0;1;0;1;1;1;1;0;0;0;0;0;1;0;1;1
0;1;0;0;0;1;1;0;0;0;1;1;0;1;1;1;1;0;0;1
1;1;1;0;1;0;1;0;0;1;0;1;0;1;1;0;0;0;1;1
0;0;1;0;0;1;0;0;1;0;0;0;1;1;1;1;0;0;1;1
