3;20;10
3;2;5
2;1;1
3;5;4;NA;NA;2;4;5;5;2;2;5;NA;NA;NA;NA;5;5;NA;5
2;NA;5;NA;NA;4;NA;2;NA;NA;NA;4;NA;NA;NA;NA;NA;3;NA;NA
5;2;5;4;5;2;1;1;5;2;1;2;1;3;5;2;5;4;1;3
0;1;0;1;1;0;0;1;1;0;1;0;0;0;1;0;1;0;0;1
0;1;0;1;1;0;0;0;0;1;1;0;1;1;0;1;1;0;0;0
0;0;0;0;0;0;1;0;0;1;0;0;0;1;0;1;0;0;0;0
0;0;0;1;0;0;0;0;0;1;0;1;1;0;1;0;0;0;0;0
1;0;0;0;0;1;1;0;0;0;0;0;0;0;0;1;1;0;0;1
0;0;0;0;0;0;0;0;0;0;0;0;0;1;0;1;0;0;1;0
1;0;0;0;1;0;0;1;0;0;1;0;0;1;1;0;0;0;1;1
0;0;1;1;0;0;1;0;1;0;0;0;1;0;1;0;0;1;0;0
0;0;0;0;1;0;0;0;0;0;0;0;0;0;1;0;0;1;1;0
0;1;0;0;0;0;0;0;1;0;0;0;1;0;0;1;0;0;1;0
