3;20;10
3;3;7
1;2;2
NA;4;NA;NA;NA;NA;NA;NA;NA;NA;5;NA;NA;NA;NA;NA;NA;NA;2;3
NA;3;NA;NA;NA;NA;NA;NA;NA;NA;3;NA;NA;NA;NA;NA;NA;NA;4;1
4;4;2;5;5;2;2;4;4;1;1;5;1;1;1;1;2;2;5;4
1;0;1;0;0;1;0;1;0;1;0;1;0;1;1;0;0;1;0;0
1;0;0;0;1;1;1;1;0;0;0;1;1;0;1;0;0;0;0;1
0;1;1;1;1;0;1;1;0;1;0;1;1;1;0;1;1;0;0;0
1;0;0;0;0;0;1;0;1;0;1;0;0;1;1;0;1;1;1;1
1;1;0;0;0;1;0;0;1;0;0;0;0;1;1;1;0;0;0;0
0;0;1;1;1;0;1;1;1;1;0;1;1;0;1;1;1;1;1;0
0;0;0;1;1;1;0;0;0;1;1;0;1;1;1;0;1;1;0;1
0;0;1;0;0;0;1;1;0;0;0;1;0;1;0;1;1;0;0;0
0;1;0;1;0;1;0;1;1;0;1;0;1;1;1;0;0;1;0;0
0;0;0;1;1;1;1;1;1;0;0;1;1;0;0;1;0;1;1;0
