3;20;10
6;3;10
1;2;1
3;3;1;1;4;NA;1;3;1;1;2;3;3;1;3;1;2;4;5;NA
NA;NA;NA;NA;NA;NA;NA;NA;NA;NA;NA;2;1;NA;NA;NA;NA;NA;NA;NA
2;4;2;1;3;5;2;1;1;4;5;5;4;2;3;5;1;1;2;2
0;1;1;0;0;1;0;1;1;1;0;0;0;0;0;0;1;0;0;1
1;0;1;0;1;1;1;1;0;0;1;1;0;0;1;0;1;1;0;1
0;1;0;0;0;1;1;1;0;0;0;1;0;1;1;1;1;0;0;0
0;0;0;1;1;1;0;1;0;0;1;1;0;1;1;1;1;1;1;1
1;1;0;0;1;0;0;0;0;1;0;0;1;1;0;0;0;1;1;1
1;0;0;1;1;1;0;0;1;1;0;0;1;0;1;1;0;0;0;1
1;0;0;1;1;1;1;0;1;0;1;0;0;0;0;1;0;0;0;1
1;1;1;1;0;0;0;1;1;0;1;0;1;1;1;0;0;1;1;0
0;1;0;0;0;0;1;1;1;1;0;0;0;0;1;1;0;0;0;1
1;0;1;1;1;1;1;0;0;0;1;0;0;0;0;0;1;1;1;0
