3;20;10
3;8;8
1;1;1
NA;2;NA;NA;NA;5;3;NA;5;2;NA;5;NA;2;NA;NA;NA;NA;5;NA
4;5;2;4;2;5;4;1;4;1;1;4;2;5;3;2;1;1;4;4
1;1;1;5;3;3;2;2;5;5;2;4;4;5;5;5;4;4;2;3
1;0;1;0;0;0;1;0;0;0;1;0;0;0;0;1;0;1;0;0
0;1;0;0;1;0;1;0;0;0;0;1;0;0;0;0;1;1;0;0
0;0;0;1;0;1;0;1;0;0;1;0;1;0;1;1;0;1;1;1
1;0;0;1;1;1;1;0;1;1;1;0;0;0;0;0;0;1;1;1
1;0;0;1;1;0;0;1;1;0;0;0;0;1;1;0;1;0;0;0
0;0;1;1;1;0;0;1;0;0;1;0;1;1;0;1;0;0;0;0
0;0;0;0;1;0;0;1;0;0;1;0;0;1;0;0;0;0;0;0
1;1;0;0;1;0;0;1;0;0;0;1;1;0;1;0;1;1;1;0
1;0;1;0;0;0;0;0;1;0;0;1;1;0;1;1;1;1;0;1
0;0;1;1;0;1;0;1;0;1;0;0;0;0;0;0;1;0;0;1
