3;20;10
9;7;7
2;2;2
3;1;2;4;4;5;2;4;3;3;5;3;3;5;3;4;3;5;4;3
1;1;1;2;2;4;3;2;2;3;4;4;5;2;2;4;1;2;2;5
5;5;4;4;4;5;5;3;5;2;4;5;3;1;3;3;2;4;2;4
0;1;0;1;0;0;1;1;1;0;0;0;0;1;1;1;1;0;0;1
0;1;0;0;1;1;0;1;0;1;0;1;0;1;0;1;1;0;1;1
0;0;1;0;0;0;0;1;0;0;1;0;0;1;1;0;1;0;0;1
1;0;0;1;0;0;1;0;1;0;0;0;1;1;1;0;0;1;0;0
0;0;1;0;0;1;1;0;0;1;0;1;0;0;1;1;1;1;1;0
1;0;1;1;0;0;1;0;1;0;0;0;1;0;1;1;0;1;1;1
0;1;0;1;1;0;0;0;1;0;0;1;0;1;1;1;1;1;1;0
1;1;1;0;1;0;1;1;0;0;0;0;1;0;0;1;1;0;1;0
1;1;1;1;1;1;0;1;0;1;1;0;1;0;1;1;0;0;1;1
0;0;0;1;0;1;0;0;0;0;1;1;0;1;0;0;1;0;1;1
