3;20;10
7;2;7
2;2;2
3;5;1;5;2;4;4;1;2;2;1;1;4;2;2;3;3;4;5;5
NA;NA;1;NA;NA;NA;NA;NA;5;NA;NA;NA;NA;NA;NA;NA;NA;NA;NA;NA
2;5;4;2;3;3;5;2;5;2;1;4;2;3;4;2;2;1;1;4
0;1;1;0;1;1;0;0;0;1;1;0;1;1;1;1;1;0;1;1
1;1;0;1;0;0;1;1;0;1;1;1;0;1;1;1;0;0;1;1
0;1;0;1;0;1;0;1;0;0;0;1;0;0;0;1;1;1;1;0
1;0;0;0;0;1;1;1;0;0;1;1;0;0;1;1;0;1;1;1
1;1;0;0;1;0;0;1;0;0;0;0;1;0;1;0;0;1;0;1
0;1;0;0;0;0;0;1;0;1;1;0;1;1;0;0;0;1;1;1
1;0;0;1;0;0;1;0;1;1;1;1;0;1;1;0;1;1;1;0
1;1;1;1;1;1;1;0;0;0;1;0;1;1;0;0;0;0;0;1
1;0;0;0;1;0;0;1;1;0;0;1;1;0;1;0;0;0;0;1
0;1;0;0;0;0;1;0;0;0;1;0;0;1;0;1;0;0;1;0
