2;15;15;NA;NA;NA;NA;NA;NA;NA;NA;NA;NA;NA;NA
7;7;NA;NA;NA;NA;NA;NA;NA;NA;NA;NA;NA;NA;NA
4;3;NA;NA;NA;NA;NA;NA;NA;NA;NA;NA;NA;NA;NA
7;1;4;10;10;3;8;10;5;5;1;5;6;3;9
2;7;8;9;8;8;5;3;3;6;6;2;2;5;3
0;0;0;0;1;0;0;0;0;0;1;1;0;1;0
0;0;0;1;0;0;0;0;1;1;1;0;1;0;0
1;0;0;0;0;0;1;0;0;1;0;0;0;0;0
1;0;0;1;1;0;0;1;0;0;0;0;0;0;0
0;0;0;1;0;0;0;0;0;0;0;0;0;1;0
0;1;1;0;0;1;1;0;0;0;0;0;0;1;0
0;0;0;1;0;0;0;0;0;0;0;0;0;1;0
0;1;0;0;0;0;0;1;0;0;1;0;0;0;0
0;0;0;0;0;1;0;0;1;0;0;0;1;0;0
0;0;0;0;0;0;0;0;0;0;0;1;0;0;0
0;0;1;0;0;0;1;0;0;0;0;0;0;0;0
0;0;0;0;0;1;0;0;0;0;0;0;0;0;0
0;0;0;0;0;1;0;0;0;0;0;1;0;0;1
1;0;0;0;1;0;0;0;0;0;0;0;1;0;0
0;0;1;0;0;0;0;0;0;0;0;0;0;0;1
