2;15;15;NA;NA;NA;NA;NA;NA;NA;NA;NA;NA;NA;NA
6;6;NA;NA;NA;NA;NA;NA;NA;NA;NA;NA;NA;NA;NA
4;3;NA;NA;NA;NA;NA;NA;NA;NA;NA;NA;NA;NA;NA
8;4;8;6;7;8;7;4;2;4;8;10;9;7;5
10;4;3;6;3;7;1;1;10;9;9;1;3;8;4
0;0;0;1;1;1;0;1;0;0;0;1;0;0;1
0;0;1;1;0;0;0;0;0;1;0;1;0;1;0
1;1;0;0;0;0;1;0;0;0;0;0;0;0;0
1;0;0;0;0;1;0;1;0;1;1;0;1;0;0
1;0;0;1;0;0;0;0;0;1;0;0;1;0;0
0;1;1;0;1;1;0;1;0;0;1;0;0;0;1
0;0;0;0;0;0;0;1;0;1;0;1;1;0;0
0;0;1;0;1;0;0;1;0;0;0;1;0;0;0
0;0;0;1;1;1;1;0;1;0;0;0;0;0;0
0;0;0;0;0;0;1;0;1;0;0;0;0;0;0
0;1;0;1;0;0;0;0;1;0;1;0;0;0;1
0;0;1;0;1;0;1;0;0;0;1;0;0;1;0
0;0;0;0;0;0;0;0;0;0;0;0;1;1;0
1;1;0;0;0;0;0;0;1;1;0;0;0;0;1
0;0;0;0;1;0;1;1;0;1;0;0;0;0;0
