2;15;15;NA;NA;NA;NA;NA;NA;NA;NA;NA;NA;NA;NA
6;6;NA;NA;NA;NA;NA;NA;NA;NA;NA;NA;NA;NA;NA
4;3;NA;NA;NA;NA;NA;NA;NA;NA;NA;NA;NA;NA;NA
8;10;2;9;8;6;8;1;5;6;8;8;5;5;3
3;10;3;3;9;1;4;5;7;1;4;8;4;6;10
0;0;0;1;0;0;0;1;1;0;0;0;0;0;0
0;0;0;1;1;0;0;0;1;1;1;0;0;0;0
0;1;0;0;0;0;0;0;1;0;0;1;0;0;0
0;0;0;1;0;0;0;0;0;1;0;1;0;0;0
0;1;0;0;0;0;1;0;0;1;1;1;0;1;1
1;1;0;0;1;0;0;1;0;0;0;1;1;0;0
0;0;1;0;1;0;0;0;1;1;0;0;0;0;0
0;0;1;0;0;1;0;0;0;0;0;1;0;1;0
0;0;1;0;0;0;0;0;0;0;0;0;0;1;0
0;0;0;0;0;0;0;1;0;0;1;0;1;1;1
1;1;0;0;0;1;0;0;0;0;0;0;0;1;0
1;0;0;1;0;1;1;0;0;0;0;0;1;0;1
0;0;0;0;0;0;0;1;1;0;0;0;0;0;1
1;1;0;1;0;1;1;0;0;0;0;0;0;0;0
0;0;1;0;0;0;0;0;0;1;1;1;0;0;1
