3;15;20
10;4;12
1;1;1
1;4;4;3;3;2;5;2;1;2;5;4;2;1;2
NA;5;NA;4;NA;NA;NA;1;NA;5;NA;1;NA;NA;NA
2;5;2;5;3;1;3;5;2;2;1;3;5;1;4
0;0;0;0;1;0;1;0;0;0;1;0;1;0;0
0;0;0;0;0;1;1;1;0;0;1;0;0;0;0
0;1;1;0;0;0;0;0;1;0;1;0;0;0;1
0;0;0;0;1;0;1;0;1;1;0;1;0;0;1
0;0;0;0;1;0;0;0;1;0;0;0;0;1;0
1;0;0;1;1;0;1;0;1;0;0;0;1;0;0
0;0;0;0;0;1;0;0;0;0;0;1;1;0;0
0;0;0;1;0;1;0;0;0;0;0;0;1;1;0
0;1;1;0;0;0;0;1;0;1;0;0;1;0;0
0;1;0;0;1;0;0;0;1;0;0;0;0;1;1
0;0;0;0;0;0;1;0;0;0;0;0;1;0;0
1;0;1;0;1;0;1;0;0;0;0;0;0;0;1
0;1;0;0;1;0;0;0;0;0;0;0;0;1;1
0;0;1;0;1;1;0;0;0;0;0;0;0;1;0
0;0;0;0;1;0;0;1;1;0;0;1;1;1;1
1;0;0;1;0;1;1;0;0;0;0;0;1;0;0
1;0;0;0;0;0;1;0;0;0;1;0;1;0;0
0;0;0;1;1;0;1;1;0;1;0;0;1;0;0
0;0;0;0;0;1;1;0;1;0;1;0;0;0;1
1;0;1;0;0;1;0;0;0;0;0;0;0;0;0
