3;15;20
5;5;6
1;2;1
2;1;3;3;3;5;4;3;4;NA;2;3;1;2;2
5;1;5;5;3;1;5;4;1;NA;1;4;3;2;2
1;3;4;4;2;5;2;2;3;2;5;5;1;5;3
0;1;0;0;0;0;1;0;1;0;0;0;1;0;0
0;0;1;0;1;0;1;0;0;1;0;0;1;0;0
0;0;1;1;0;1;0;0;0;0;0;0;0;0;0
1;0;0;0;0;0;0;0;0;0;0;0;0;0;0
1;0;1;0;0;0;0;0;0;0;0;0;0;0;1
1;0;0;0;1;0;0;0;0;1;0;0;0;0;0
0;0;0;1;0;1;0;0;0;0;0;0;0;0;0
0;1;0;0;0;0;0;0;1;0;0;0;0;0;0
0;0;0;0;1;0;0;0;0;0;0;0;0;0;0
0;0;0;0;0;1;0;0;0;1;0;0;1;0;1
0;0;1;1;0;0;0;0;0;1;1;0;0;1;1
0;0;0;1;0;0;0;0;0;0;1;0;1;0;0
0;0;0;0;0;0;1;0;1;0;0;0;0;1;0
1;0;0;0;0;0;0;0;0;1;1;0;0;0;0
0;1;0;0;0;0;0;0;0;0;0;0;1;1;0
0;0;0;0;0;0;0;0;1;0;0;0;0;0;0
0;0;0;0;0;0;0;0;0;0;1;1;0;0;1
0;0;1;0;1;0;0;0;0;0;0;1;0;0;1
0;0;0;0;0;0;0;1;0;0;0;1;0;1;0
1;0;0;0;0;0;1;0;0;1;0;0;0;0;0
