3;15;20
15;10;15
2;1;1
5;4;4;4;5;3;5;2;1;5;1;5;4;3;4
NA;1;3;1;NA;2;3;NA;5;NA;NA;4;1;NA;NA
1;3;5;4;3;1;1;5;2;1;4;3;2;1;5
1;1;0;0;1;1;1;1;0;0;1;1;0;1;1
1;1;1;1;1;0;0;1;0;1;1;0;0;1;1
0;1;1;0;1;0;0;0;0;1;0;1;1;1;0
1;0;1;0;0;1;0;1;0;1;0;0;0;0;0
0;0;1;0;0;0;1;0;1;0;1;0;0;1;1
0;1;0;1;1;0;0;1;0;1;0;0;0;0;1
1;1;0;0;1;0;1;0;1;0;1;0;0;1;1
0;0;1;1;0;0;1;0;0;1;1;0;1;1;1
0;0;0;1;1;1;0;1;0;1;1;1;1;1;0
1;0;1;1;1;1;1;1;0;1;1;1;0;0;1
1;0;0;0;0;1;0;1;0;0;0;1;0;1;0
1;0;0;0;1;0;1;1;0;0;1;0;1;1;0
1;1;1;1;0;0;0;0;0;0;1;1;1;1;1
1;0;1;0;0;0;0;0;0;1;0;1;0;0;1
1;0;1;1;1;1;0;1;0;1;1;0;1;0;0
1;0;0;1;0;1;0;1;0;1;0;0;0;0;1
0;1;0;1;1;0;1;1;1;0;0;0;0;0;0
0;0;0;0;0;0;1;0;1;0;1;0;1;1;1
1;1;0;0;1;1;0;1;1;1;1;0;0;0;0
1;0;0;1;0;1;1;1;1;0;0;1;0;1;1
