3;15;20
14;19;14
2;2;1
3;3;5;5;5;1;5;2;3;1;5;5;1;3;2
4;3;2;2;5;4;4;5;3;1;5;2;2;5;4
1;5;2;1;5;1;1;5;5;2;1;3;1;4;5
1;0;0;1;1;0;1;0;0;1;1;1;0;0;0
1;1;0;1;0;0;0;0;1;0;0;0;1;1;1
1;0;0;1;1;1;1;0;0;1;1;1;0;1;0
0;0;0;1;0;0;1;1;1;0;1;1;0;0;0
0;1;1;0;1;0;0;0;0;1;1;1;1;1;1
0;0;1;1;1;0;1;1;1;1;0;0;0;0;0
0;0;1;1;1;1;1;1;1;0;0;0;1;0;0
1;1;0;0;0;1;1;0;1;0;0;0;1;0;1
1;1;0;1;1;0;1;0;1;1;0;0;1;1;1
1;0;0;1;0;1;0;0;0;1;1;1;1;0;1
1;0;1;0;1;0;0;0;1;0;1;1;0;1;1
1;0;1;1;0;0;0;0;1;0;1;0;0;1;0
1;1;0;1;0;0;0;0;0;1;0;0;0;1;0
1;1;1;1;0;1;0;1;0;1;0;1;1;0;1
0;0;1;0;1;0;0;1;1;1;1;0;1;1;1
1;1;1;0;0;1;1;0;1;0;1;0;0;1;1
0;0;0;1;0;0;1;0;0;1;0;1;0;0;1
0;0;0;1;0;0;1;0;1;1;0;0;1;0;1
1;0;1;0;1;0;0;1;1;0;1;0;1;1;0
1;1;1;1;0;0;0;0;0;0;1;0;1;0;0
