3;15;20
7;9;19
2;2;2
2;NA;NA;NA;NA;NA;NA;NA;3;NA;NA;NA;NA;NA;NA
4;NA;NA;5;NA;4;1;NA;5;1;NA;NA;NA;NA;NA
2;4;1;1;5;3;5;2;3;5;2;5;5;1;5
1;0;1;0;0;1;0;0;0;1;1;0;1;0;1
0;1;1;0;1;0;0;1;1;0;1;0;1;1;0
0;1;0;0;0;0;0;1;0;1;1;1;0;1;1
1;0;0;1;1;0;0;0;0;1;0;1;1;0;1
0;0;1;1;0;1;0;1;0;1;0;0;0;0;0
1;0;0;1;0;0;1;1;0;1;1;1;1;1;0
1;0;1;1;0;0;0;1;1;0;0;0;1;1;0
1;1;1;0;1;1;0;0;0;0;1;0;1;0;1
0;1;0;0;0;0;0;0;1;1;1;1;1;1;1
0;1;1;1;0;1;1;0;0;1;0;1;0;1;0
0;0;1;0;1;0;1;0;1;1;0;1;1;1;0
0;1;0;0;1;1;1;1;0;0;1;1;1;0;0
0;0;1;0;0;0;1;1;1;0;1;1;0;0;1
1;0;1;1;0;1;1;0;0;0;0;1;1;0;1
0;1;1;1;1;0;0;1;0;0;0;0;1;1;0
0;1;0;0;1;1;0;1;1;0;1;0;1;1;1
0;1;0;1;1;1;0;1;0;0;1;1;1;0;0
0;1;1;1;1;0;1;1;0;1;0;1;0;1;1
0;1;1;0;0;1;0;0;0;0;1;0;1;0;0
0;1;0;0;1;0;1;1;0;0;0;0;1;0;1
