3;15;20
8;3;9
1;1;1
2;1;2;3;4;1;1;1;3;1;3;4;4;1;5
4;3;NA;4;NA;NA;1;NA;1;NA;NA;NA;NA;NA;1
4;1;4;5;5;1;1;5;4;1;5;2;5;5;2
0;0;0;0;0;1;0;1;0;0;0;0;1;0;1
0;0;0;0;1;0;0;0;0;0;0;0;1;1;1
0;0;1;0;0;0;0;0;0;0;1;0;0;0;0
0;0;1;1;0;1;1;1;0;1;1;1;1;0;0
0;0;1;0;0;1;0;0;1;1;0;1;1;0;0
0;0;0;0;1;0;0;1;0;0;1;0;0;0;0
0;0;0;0;1;0;0;0;0;0;0;0;0;0;1
1;0;0;0;1;0;0;0;0;0;0;1;0;0;0
0;0;1;0;0;0;0;0;0;0;0;0;0;1;0
0;1;0;0;0;0;0;0;0;0;0;0;0;1;0
0;0;0;0;0;0;0;0;0;1;0;0;0;1;0
1;0;0;0;1;0;0;1;0;0;0;0;0;0;0
0;0;0;0;1;0;0;0;0;0;0;0;0;0;0
0;0;0;0;0;0;0;0;0;0;0;1;1;0;0
0;0;0;0;0;0;1;1;0;0;0;0;0;0;0
0;0;0;0;0;0;1;0;0;0;0;0;0;1;0
0;0;0;0;0;0;0;0;0;1;0;0;0;0;0
0;0;0;0;0;1;0;0;0;0;0;0;0;0;0
0;1;0;0;0;0;0;1;1;1;0;0;0;1;0
0;0;0;1;0;1;0;0;0;0;1;0;0;1;0
