3;15;20
7;6;7
2;1;2
4;5;4;2;4;1;4;1;2;4;5;2;1;5;4
2;2;2;3;4;5;5;1;5;4;NA;2;3;4;3
5;5;3;1;3;3;1;3;2;5;2;1;5;3;1
0;1;1;0;0;0;1;0;0;0;0;1;0;0;0
0;0;0;0;0;0;0;0;0;0;0;0;0;0;1
1;0;0;0;0;0;1;0;1;0;1;1;1;0;0
0;0;1;0;0;1;0;0;1;0;0;0;0;1;0
1;0;1;1;0;0;0;0;0;0;0;0;0;0;1
1;0;0;1;0;0;0;0;0;0;1;0;0;0;0
0;0;0;1;1;0;0;0;1;0;1;0;0;0;0
1;0;0;0;0;1;0;0;0;0;0;0;0;1;1
0;0;0;0;0;0;1;0;0;0;1;0;1;0;0
0;0;0;0;0;0;0;0;0;1;1;0;0;1;0
1;0;0;0;0;0;0;0;0;0;0;0;0;0;0
0;0;1;0;0;0;0;0;0;0;0;0;0;0;1
0;0;0;1;1;0;1;1;0;1;0;0;0;0;0
0;0;0;0;0;0;0;0;1;0;0;0;1;0;0
0;1;0;1;0;0;0;0;0;0;0;0;0;0;0
0;0;0;0;1;0;1;0;1;0;0;0;1;0;0
0;1;0;0;0;1;0;0;0;0;1;1;0;0;0
1;0;0;0;0;0;0;0;0;0;0;0;0;0;0
0;0;0;0;0;0;0;0;0;0;1;1;0;0;0
0;0;0;0;0;0;0;0;0;0;0;0;0;1;0
