3;15;20
5;4;7
2;2;2
NA;4;1;5;1;3;2;1;NA;4;4;3;3;2;NA
NA;2;1;4;NA;1;NA;5;NA;1;4;4;5;5;NA
4;3;4;5;2;3;1;4;3;2;2;4;1;5;4
1;1;0;0;0;0;0;1;0;0;0;1;1;0;0
1;0;0;1;0;1;0;0;0;0;0;0;0;0;1
0;0;0;1;0;0;1;0;0;0;0;0;0;0;0
0;0;0;0;0;0;0;0;1;0;1;0;0;1;0
0;0;0;0;1;0;0;0;0;0;1;0;0;1;0
1;0;1;1;0;0;0;0;0;0;0;0;0;0;0
1;0;0;0;0;0;0;0;0;1;0;0;0;0;0
0;0;0;0;0;0;0;0;0;0;0;1;0;0;0
0;1;0;0;0;1;0;0;1;0;0;1;0;0;0
0;0;0;0;0;0;0;0;1;0;0;0;0;0;0
0;0;0;0;1;0;0;0;0;1;0;0;0;0;1
1;0;0;0;0;0;0;0;0;0;1;0;0;0;0
0;0;1;0;1;0;1;0;0;0;0;0;0;0;1
1;1;0;0;0;0;0;0;0;0;0;0;0;0;1
0;0;0;1;0;0;0;0;0;0;1;0;0;0;0
0;0;0;0;0;0;1;0;1;1;0;1;0;0;0
1;0;0;0;1;0;0;0;0;0;0;0;0;1;1
0;1;1;0;0;0;0;0;1;0;0;0;0;0;0
0;0;0;0;1;0;1;0;0;0;0;0;0;0;0
0;0;0;0;0;0;1;0;1;1;0;0;1;0;1
