3;15;20
14;9;16
2;2;1
2;5;5;1;NA;4;3;1;2;5;1;3;5;1;2
NA;4;NA;NA;NA;NA;NA;1;2;2;4;NA;2;NA;NA
5;4;4;1;5;3;4;5;3;4;5;2;2;2;5
1;0;1;0;1;0;1;0;0;0;0;0;0;0;1
0;0;0;1;0;0;1;0;0;1;0;1;0;0;1
0;0;1;0;1;1;1;0;1;0;1;0;0;1;0
0;1;1;0;0;1;0;0;0;0;1;0;1;0;0
0;1;0;1;1;0;0;0;0;1;1;1;1;1;0
1;1;1;0;1;1;1;0;0;0;1;1;0;1;0
1;0;1;0;1;1;0;1;0;1;0;0;0;1;1
0;1;1;1;1;1;1;0;0;0;0;0;1;0;1
1;1;1;1;0;1;0;0;1;0;0;1;0;1;1
0;0;1;1;1;0;0;0;0;1;1;0;1;0;1
1;0;1;0;1;1;1;1;1;0;1;0;0;0;0
1;0;1;1;1;1;0;1;0;0;0;1;0;0;1
1;1;1;1;1;0;0;1;0;0;0;1;0;1;0
0;0;1;1;1;1;1;1;0;0;0;1;0;1;0
0;0;0;0;1;1;1;0;0;1;0;0;1;0;0
1;0;0;0;0;0;0;0;1;0;0;1;1;1;0
1;1;0;0;1;0;1;1;1;0;1;1;1;1;1
1;0;1;1;1;0;1;1;1;1;0;0;1;0;1
0;1;0;1;1;0;0;1;0;1;0;1;1;1;1
1;0;0;1;1;0;0;1;1;0;0;1;0;0;1
