3;15;20
5;7;9
2;1;1
NA;4;NA;4;2;NA;NA;NA;NA;NA;NA;NA;5;NA;NA
3;1;1;4;3;5;NA;2;3;5;3;1;4;3;NA
5;4;2;4;5;2;5;4;5;2;5;4;3;1;4
0;1;1;1;0;0;0;0;0;0;1;0;0;1;0
0;0;0;0;0;0;0;0;0;0;1;0;0;0;1
1;1;0;0;0;0;0;0;1;1;0;0;1;1;0
0;0;1;1;0;0;0;0;0;1;1;0;0;0;0
1;0;0;0;1;1;0;1;0;0;0;0;0;0;1
1;0;1;0;0;0;1;1;1;1;0;0;0;0;1
0;0;0;0;1;0;0;0;1;1;0;1;0;0;0
0;0;0;0;0;1;1;1;0;0;0;0;0;0;0
0;0;0;0;1;0;1;0;0;1;0;1;0;1;0
1;0;0;0;0;0;0;1;0;0;1;0;0;0;0
1;0;0;0;1;1;1;1;0;1;0;0;0;0;0
0;0;0;0;0;0;0;0;1;1;0;1;0;1;0
0;0;1;1;0;0;0;0;0;0;0;0;0;1;0
0;1;0;1;0;0;1;0;0;0;0;1;0;0;1
0;1;0;0;0;1;1;0;1;0;1;0;0;0;1
0;0;1;0;1;0;0;0;1;0;1;0;1;1;1
0;0;1;0;0;1;0;1;0;0;0;0;0;0;0
0;1;0;1;0;1;0;1;0;0;1;1;0;0;1
1;0;0;0;0;0;1;0;0;0;0;1;0;0;0
0;0;0;0;0;0;1;0;0;0;0;0;0;0;1
