3;15;20
8;7;14
2;2;1
NA;NA;1;NA;1;2;5;2;NA;5;3;1;3;1;3
NA;NA;2;NA;NA;NA;NA;4;NA;5;3;4;4;NA;2
5;5;5;2;2;1;5;4;3;5;5;1;1;5;1
1;0;0;1;1;1;0;1;0;0;1;0;1;0;0
0;0;0;0;0;0;0;1;0;0;0;1;0;0;0
0;0;1;1;0;1;0;0;1;0;0;0;1;1;0
1;0;0;1;0;1;0;0;0;1;0;0;0;1;1
1;1;1;0;0;0;1;1;0;0;1;0;0;1;0
0;1;1;1;0;0;0;1;1;1;0;0;0;0;0
0;1;1;1;1;1;0;0;1;1;0;1;0;0;1
1;0;0;1;1;0;1;1;0;0;0;1;0;1;0
1;1;1;0;0;0;1;0;1;1;1;0;1;1;0
1;1;0;0;1;1;1;0;1;0;0;0;0;0;1
1;1;1;0;0;1;0;0;1;0;0;0;0;0;0
0;1;0;1;0;1;0;0;0;0;0;0;0;0;1
1;1;0;1;1;1;1;0;0;1;0;0;0;1;0
1;0;0;0;1;0;1;1;0;0;1;0;1;0;0
0;0;0;1;0;0;1;0;1;0;1;0;0;1;0
0;0;0;1;0;0;1;0;1;0;1;1;0;1;0
0;1;0;0;0;0;0;1;0;1;0;0;1;0;1
1;0;0;1;0;0;0;0;1;0;0;1;1;0;0
1;0;0;0;1;0;0;0;0;1;0;1;0;0;1
0;1;0;0;1;0;0;0;0;0;1;1;0;0;1
