3;15;15
11;2;10
2;2;2
2;3;4;1;2;4;3;2;4;5;1;4;5;3;2
NA;NA;NA;NA;2;NA;NA;NA;NA;NA;NA;NA;NA;NA;NA
3;5;5;2;2;3;5;4;1;5;5;3;3;4;2
1;0;0;1;0;0;1;0;0;1;1;0;1;0;1
0;0;0;0;0;0;1;0;0;1;1;1;1;1;1
1;0;0;0;0;0;0;1;0;0;0;0;0;1;0
1;0;1;0;0;1;1;1;0;0;1;1;0;1;1
0;0;1;0;0;0;1;1;0;1;0;1;1;0;0
0;0;0;0;0;1;1;0;1;1;0;0;0;0;1
1;1;1;0;0;0;1;0;1;1;1;0;0;0;0
1;0;0;0;0;0;0;0;1;0;0;1;1;0;1
0;1;0;0;0;0;1;0;0;0;1;1;0;0;1
0;1;1;1;1;0;0;0;0;0;1;0;0;1;1
0;0;1;0;0;1;0;1;1;0;0;1;0;0;1
1;0;0;0;1;1;1;0;1;0;0;0;1;0;0
1;0;0;0;0;0;1;1;0;0;0;0;1;0;0
1;0;0;1;0;0;1;0;1;1;0;0;1;1;0
1;0;0;1;0;1;0;0;1;0;1;0;0;0;1
