3;15;15
1;6;6
2;1;1
1;NA;NA;NA;NA;NA;NA;NA;NA;NA;5;NA;NA;4;NA
3;5;5;1;4;4;2;3;2;2;5;3;4;5;4
3;5;5;5;3;5;1;1;3;5;5;1;1;4;3
0;0;0;0;0;1;0;0;0;0;0;0;1;0;1
0;0;0;0;1;1;0;1;0;0;0;0;0;0;0
0;0;1;0;0;0;1;0;1;0;0;1;0;1;1
0;0;0;1;1;0;0;1;0;0;0;0;0;0;0
0;0;1;0;0;0;1;0;1;0;0;0;0;0;0
0;0;0;0;0;0;1;0;1;1;0;0;0;0;0
0;0;1;0;0;0;0;0;0;0;0;0;0;0;0
0;1;0;0;0;0;1;1;0;1;0;0;0;0;0
0;0;0;0;1;0;0;0;0;0;0;0;0;0;0
0;1;0;0;0;0;0;0;1;0;0;1;0;0;0
0;0;1;0;0;0;0;0;0;0;0;1;0;0;0
0;0;1;0;0;1;1;0;1;0;0;0;0;0;0
0;0;0;1;1;0;0;0;0;0;0;0;1;0;0
0;0;0;1;0;0;0;0;0;0;1;0;0;0;0
1;1;0;0;0;0;0;1;0;1;0;0;0;0;0
