3;15;15
14;15;11
2;2;2
3;1;1;2;1;4;5;5;1;5;2;5;4;3;2
3;2;2;1;4;4;5;4;2;3;5;1;5;4;3
1;4;1;3;2;3;2;2;1;5;4;4;5;5;1
1;0;0;0;1;1;0;0;0;0;1;0;0;1;1
0;0;1;1;0;0;1;1;0;1;0;1;1;0;1
1;1;0;1;0;1;1;1;1;0;1;1;1;1;1
0;1;1;1;1;1;0;1;0;1;1;1;1;0;1
1;1;0;1;1;1;0;0;0;1;0;0;0;1;1
0;0;0;0;0;1;1;1;1;0;0;1;0;0;0
0;1;0;0;1;1;0;1;1;0;1;1;1;1;1
1;1;0;1;1;0;0;1;0;1;0;0;1;0;0
0;1;0;1;0;0;0;1;0;1;1;0;0;1;0
0;1;0;1;0;1;0;1;0;1;1;1;0;1;1
1;1;0;0;0;0;0;0;0;1;0;0;1;0;0
0;0;1;0;0;0;0;1;1;0;0;1;0;1;1
0;1;1;1;1;1;1;0;1;0;0;0;0;0;1
0;0;1;1;0;1;1;0;1;0;1;1;0;1;1
0;0;0;1;0;0;1;0;0;0;1;0;0;0;1
