3;15;15
3;7;7
2;1;1
1;5;5;NA;NA;3;3;1;NA;4;3;1;5;NA;5
1;3;4;2;4;4;2;3;2;5;3;4;2;1;1
1;3;4;1;2;3;5;5;5;3;4;5;2;1;5
0;0;0;1;0;0;1;0;0;1;1;0;1;0;0
1;0;0;0;1;0;0;0;1;0;0;0;0;0;0
0;0;0;0;0;1;0;0;1;0;0;1;0;1;0
1;0;0;0;1;0;0;0;0;0;0;0;0;0;0
0;1;0;0;1;0;0;0;0;0;0;0;0;1;0
1;0;0;0;0;0;0;1;0;0;0;0;0;0;0
0;0;0;1;0;0;0;0;0;0;0;0;0;0;0
0;1;0;0;1;0;0;0;0;0;0;1;1;0;0
0;0;1;0;0;0;0;0;0;0;0;0;0;0;0
0;0;0;1;0;1;0;0;0;0;0;0;0;0;0
0;0;0;1;0;0;0;0;0;0;0;0;0;1;0
0;0;0;0;0;0;0;0;1;0;0;0;0;0;1
0;0;0;0;0;0;1;1;1;1;1;0;0;0;0
0;0;0;1;0;1;0;0;0;1;0;0;1;0;1
0;0;1;1;0;0;0;0;0;0;0;0;0;1;1
