3;15;15
6;10;11
2;2;1
NA;NA;5;NA;NA;NA;NA;1;3;NA;4;NA;2;NA;NA
3;1;2;2;4;3;3;1;1;NA;3;5;3;5;3
3;2;4;2;3;3;5;4;4;4;3;4;2;5;4
0;0;0;1;0;1;0;1;0;1;0;0;0;0;1
1;1;0;1;1;0;1;0;0;1;1;0;1;0;0
0;1;0;0;0;1;0;0;1;1;0;0;0;1;1
1;1;0;0;1;0;1;0;0;0;0;0;1;1;0
1;1;1;0;1;1;1;1;1;0;1;1;1;1;1
1;0;1;0;1;0;1;1;1;1;1;1;1;1;1
1;1;0;0;1;0;0;1;0;1;1;0;1;1;1
1;1;0;1;1;1;0;0;1;0;0;1;0;0;1
1;0;0;1;1;1;1;0;0;1;0;1;0;0;1
1;0;0;1;0;0;1;1;0;1;0;1;0;1;0
0;0;0;0;0;1;1;0;1;1;1;1;0;1;0
0;0;0;1;0;0;1;0;1;1;0;1;0;0;0
1;0;0;1;1;1;1;0;0;0;1;1;0;0;1
0;0;0;1;0;1;1;0;0;1;0;0;0;0;0
0;1;1;1;0;1;0;1;0;1;0;1;0;0;0
