2;10;20
11;14
1;2
5;1;5;5;4;4;NA;2;NA;2
2;2;2;5;1;5;1;3;1;2
0;0;1;0;1;0;1;0;1;1
0;1;1;0;1;1;1;1;1;1
0;1;1;1;0;0;0;0;1;0
1;0;0;1;0;0;0;1;0;0
0;1;1;0;0;1;0;1;0;1
1;1;1;1;1;1;1;0;1;1
1;0;0;0;1;0;0;0;1;1
1;1;0;0;1;1;1;1;0;0
0;0;1;1;0;1;0;1;0;0
1;1;0;0;1;0;1;1;1;1
1;1;1;0;0;0;1;0;1;1
1;1;0;0;0;1;1;0;0;0
0;1;0;0;1;1;0;1;1;0
1;0;0;0;1;0;1;0;1;0
0;0;0;0;0;1;1;1;1;1
0;0;0;0;1;0;1;0;0;0
1;0;0;0;0;1;1;0;1;0
1;0;0;0;0;1;0;0;1;1
0;0;0;1;1;0;1;1;1;1
0;0;1;0;1;0;1;1;1;0
