2;10;20
13;9
2;1
2;1;2;2;5;4;2;2;2;3
5;1;1;2;1;3;5;5;5;1
1;0;0;1;0;0;0;0;0;0
0;0;0;0;0;0;0;1;0;1
0;0;1;0;1;1;0;0;0;0
0;0;0;0;0;1;0;0;0;1
0;0;0;0;0;0;1;0;1;1
1;0;1;0;1;0;0;0;0;0
1;0;0;0;0;0;1;0;1;0
1;0;0;0;1;0;0;0;0;0
0;1;1;0;0;0;0;0;0;1
0;1;0;0;1;1;0;0;0;0
0;0;1;0;1;0;1;0;0;0
0;1;0;0;0;0;1;0;0;0
0;0;0;1;1;1;1;0;0;1
0;0;0;0;1;0;0;1;0;1
1;1;0;0;0;1;0;0;0;1
0;0;1;0;0;1;1;0;0;0
0;1;0;1;0;0;0;1;0;1
0;0;0;1;0;0;1;0;0;0
0;0;1;0;0;0;0;1;1;1
0;1;1;0;0;0;1;0;1;0
