2;10;20
6;6
2;2
4;3;3;1;5;4;1;5;5;1
4;1;1;2;3;1;2;3;2;4
0;1;0;0;0;0;0;0;1;0
0;0;0;0;0;0;0;1;0;0
0;1;0;1;0;0;0;0;0;0
0;0;0;0;0;1;0;0;0;0
1;1;0;1;0;1;0;0;1;0
1;0;0;0;0;0;0;0;0;0
1;0;0;0;1;0;0;1;0;0
0;0;0;0;0;0;0;1;0;0
0;0;0;0;0;0;1;0;0;0
0;0;0;0;0;0;1;0;0;0
0;1;0;0;0;0;0;0;0;0
0;0;0;0;1;1;0;0;0;1
0;0;0;0;1;0;0;1;0;0
1;0;0;0;0;0;0;0;0;0
0;0;0;0;1;0;1;0;1;0
0;0;0;1;0;0;0;0;0;1
0;0;1;1;1;1;1;0;0;1
1;0;0;0;0;0;0;0;0;0
1;0;0;0;0;0;0;0;0;0
0;0;0;0;0;0;1;0;0;1
