2;10;20
10;9
1;1
1;5;2;2;4;2;5;5;3;2
1;2;3;4;5;5;5;1;2;1
0;0;0;0;1;0;0;1;0;0
1;0;0;1;0;1;0;1;0;1
1;1;0;0;0;1;0;1;0;0
0;0;0;1;0;0;0;1;1;0
1;0;1;1;0;0;0;0;0;0
0;0;0;1;1;0;0;0;0;0
0;0;0;0;1;1;0;1;0;0
0;0;0;0;0;1;0;0;1;0
0;0;0;0;0;1;0;0;1;0
0;1;0;0;0;0;1;0;1;0
1;0;0;0;0;0;0;0;1;0
0;0;0;0;1;1;0;0;0;0
1;0;0;1;0;1;0;0;0;1
0;0;0;0;0;0;1;0;0;1
0;0;0;0;0;1;0;1;1;0
0;0;1;0;1;0;0;0;0;1
0;1;1;0;0;0;0;0;1;0
0;0;0;1;1;0;0;0;1;0
0;1;0;1;0;0;0;1;0;1
0;0;1;0;1;1;0;0;1;1
