2;10;20
14;15
2;1
1;4;2;2;2;5;3;3;4;2
1;5;3;3;3;2;2;3;3;3
1;0;0;0;0;1;0;0;1;1
0;0;1;0;1;1;0;0;0;0
1;0;1;0;0;1;0;0;0;1
0;0;0;0;1;1;0;1;0;0
1;1;1;0;0;0;0;1;0;1
1;0;0;0;0;0;1;1;1;1
0;0;0;1;0;1;0;0;0;0
1;0;0;1;1;0;1;1;0;0
0;1;1;0;0;1;1;0;1;0
0;1;0;1;1;0;1;0;1;0
0;1;0;0;0;0;1;1;0;1
1;1;0;0;0;0;0;0;0;0
0;0;1;0;0;1;1;0;1;0
1;0;0;0;0;0;0;0;1;0
1;0;0;0;1;0;0;0;0;0
0;0;0;0;0;1;0;1;1;0
0;1;1;1;0;0;0;1;1;1
0;0;1;1;1;0;0;0;0;1
1;1;1;0;1;1;1;1;0;1
1;0;0;1;0;0;0;1;0;1
