2;10;20
6;7
2;1
1;1;2;2;2;1;5;NA;4;3
3;1;5;1;2;2;3;2;1;2
0;1;1;0;0;0;1;1;0;0
0;1;0;1;0;0;0;1;0;1
0;0;0;1;0;0;0;0;0;0
0;0;0;1;1;0;1;0;0;0
0;0;0;0;0;0;0;1;0;0
0;0;0;0;0;0;1;0;0;1
1;0;0;0;0;1;0;0;0;0
0;0;0;0;0;0;0;0;1;0
0;1;0;0;0;0;0;0;1;0
0;0;1;0;0;0;1;0;0;0
0;1;0;0;1;0;0;0;0;0
0;0;0;0;0;0;0;1;0;0
0;0;0;0;0;0;1;0;0;0
0;0;0;0;0;1;0;0;0;0
1;0;0;0;0;0;0;0;0;1
0;1;0;0;0;0;0;0;1;0
0;1;1;0;0;1;0;0;0;0
0;0;1;0;0;0;0;1;0;0
0;0;0;0;1;0;0;1;0;0
0;0;0;0;0;0;0;1;0;1
