2;10;20
14;19
2;2
1;4;5;5;5;1;3;5;4;3
2;2;5;1;3;1;1;1;4;3
0;1;0;0;0;0;1;0;0;0
1;1;0;0;0;0;1;1;1;1
1;0;0;1;0;0;1;0;1;0
1;0;1;0;0;0;0;0;0;1
1;0;0;1;0;1;0;1;1;1
0;0;1;1;0;0;1;0;0;0
0;1;0;1;0;0;0;0;0;1
1;1;0;0;0;1;0;1;0;1
1;1;0;1;1;1;0;1;0;1
1;1;1;1;1;0;0;1;0;1
1;0;1;1;1;0;1;1;0;1
0;1;1;0;1;1;0;1;1;1
0;0;0;0;1;0;1;1;1;0
0;1;1;1;0;1;1;1;0;0
0;0;0;1;0;0;1;1;0;0
1;0;1;1;0;1;0;0;1;1
0;0;1;0;0;1;1;1;1;1
1;1;0;1;1;1;0;0;0;1
1;0;0;1;0;1;1;0;1;1
1;0;0;1;1;0;0;0;0;0
