3;10;15
11;10;11
2;2;2
5;5;1;5;5;4;4;5;4;3
4;1;4;5;5;3;5;2;2;4
4;1;4;3;2;4;1;3;1;3
0;0;0;0;0;1;0;0;1;1
0;1;0;0;0;1;0;1;0;1
0;1;0;0;1;0;0;0;1;1
1;1;0;0;0;0;0;0;0;0
1;0;1;1;0;0;0;0;1;0
1;0;0;1;0;1;0;1;0;1
1;1;1;0;0;0;1;0;1;0
1;0;1;0;1;0;1;1;0;0
1;0;1;0;1;0;0;1;1;1
0;0;0;0;1;0;1;0;0;1
1;0;0;0;1;1;0;0;0;0
0;0;1;0;1;1;1;1;0;0
0;0;0;1;1;0;1;1;1;0
0;0;0;1;0;0;0;1;1;0
1;0;1;0;0;0;0;0;1;0
