3;10;15
10;6;11
1;1;1
1;5;3;4;1;4;3;4;4;3
4;4;NA;2;NA;NA;3;3;5;NA
3;5;4;4;2;5;1;4;1;1
0;0;0;1;0;1;0;0;1;1
0;0;1;0;1;0;1;0;0;1
1;0;0;0;1;0;0;0;1;1
1;0;0;0;1;0;1;1;1;0
0;1;1;0;0;0;0;1;0;1
0;0;0;0;1;0;0;0;1;0
1;1;1;1;0;0;0;0;0;0
1;0;1;0;0;1;0;0;0;0
0;0;0;0;0;0;0;0;1;1
0;1;1;0;1;1;0;0;0;1
0;1;1;0;0;1;0;0;0;1
1;0;0;0;1;1;1;1;0;0
0;0;1;0;1;0;1;1;0;0
1;1;0;0;1;1;0;1;1;0
0;0;1;1;0;1;0;1;0;0
