3;10;15
8;5;8
2;2;2
5;5;1;1;2;3;3;1;4;1
2;NA;5;5;2;NA;3;3;3;5
2;4;5;3;2;4;3;3;5;3
0;1;0;0;0;0;0;0;0;0
0;0;0;0;1;1;0;0;1;0
0;0;0;1;1;0;1;0;0;0
0;0;1;0;0;1;1;1;0;0
0;1;1;0;0;1;0;0;0;0
0;1;0;1;0;0;0;1;0;0
0;1;0;0;0;0;1;1;0;1
0;1;1;0;0;1;0;0;0;0
1;1;0;0;0;1;0;0;0;0
0;0;1;1;0;1;0;0;1;1
0;0;0;0;0;0;0;1;1;0
1;0;1;0;1;1;0;0;0;1
0;0;0;0;0;0;0;0;0;1
0;0;0;0;1;1;0;0;1;0
0;0;0;0;1;0;1;0;0;0
