3;10;15
5;2;7
2;1;1
4;1;1;NA;2;4;5;2;2;2
NA;4;2;NA;2;2;NA;4;NA;4
2;5;4;2;5;3;4;4;1;3
0;1;0;0;0;0;0;0;0;0
0;0;0;1;0;0;1;0;0;0
1;0;1;1;0;0;0;0;0;0
1;0;0;0;0;0;0;1;0;0
0;0;0;1;1;0;1;0;0;1
0;0;0;0;0;0;1;0;0;0
0;0;0;0;1;0;0;0;1;0
1;0;0;0;0;0;0;0;1;0
0;0;0;1;0;0;0;0;0;0
0;0;0;0;0;0;1;0;1;0
0;0;1;1;0;0;0;0;0;0
1;0;0;1;0;0;0;0;1;0
0;0;0;0;0;1;0;0;0;0
0;1;0;1;0;0;0;0;0;0
0;0;0;0;0;0;1;0;0;1
