3;10;15
8;7;6
1;1;1
2;1;1;5;3;2;4;2;4;5
1;1;1;2;2;1;5;4;1;4
4;3;5;3;3;3;4;4;2;3
0;1;0;0;0;0;0;1;1;0
0;0;1;1;1;0;0;0;0;0
1;0;0;0;0;0;0;1;0;0
1;1;0;1;0;0;0;0;0;0
0;1;1;0;0;0;1;0;0;0
0;1;0;1;0;0;1;0;0;0
0;0;1;0;0;0;0;1;1;0
1;0;0;0;0;0;0;0;0;1
1;0;0;0;0;0;1;0;0;0
0;0;0;1;1;1;0;0;0;0
0;0;1;0;1;0;1;1;0;0
0;0;0;0;0;1;1;1;0;1
0;0;0;1;0;1;1;0;1;0
0;0;1;0;0;1;0;1;0;0
0;0;0;1;0;0;0;0;1;1
