3;10;15
10;6;11
1;1;2
2;3;1;2;5;2;4;3;2;5
NA;NA;2;5;4;NA;NA;2;2;5
3;1;3;5;1;4;2;5;4;2
1;1;0;0;0;0;0;0;0;1
0;0;1;0;1;0;0;0;0;0
0;0;1;0;1;0;0;0;1;0
1;1;0;1;1;0;1;0;0;1
1;0;1;0;1;1;1;0;1;0
1;0;0;0;0;0;1;1;0;0
1;1;0;0;0;0;1;1;0;1
0;0;1;0;1;0;0;0;0;1
0;1;0;1;0;0;1;0;1;0
0;1;1;1;0;1;1;0;0;0
1;0;0;1;0;1;1;1;0;0
1;0;1;0;0;1;1;0;0;0
0;1;0;0;0;1;1;0;1;0
0;0;0;0;1;1;0;0;1;0
0;1;0;1;0;1;0;0;0;1
