3;10;15
6;10;9
2;1;2
4;NA;4;NA;3;1;3;5;NA;1
5;1;2;2;3;1;1;5;2;5
5;3;4;3;3;3;4;2;2;5
0;0;0;1;0;1;1;0;0;0
1;0;1;1;0;0;1;1;0;0
0;1;0;1;0;0;1;1;1;1
0;1;1;0;0;0;0;0;1;1
0;1;1;0;0;1;0;0;1;0
0;0;1;1;0;1;0;1;0;1
1;0;0;1;0;1;0;0;0;0
1;0;0;1;1;1;0;0;0;0
0;1;0;0;1;0;1;1;0;1
1;0;0;0;0;0;1;0;1;0
0;1;0;1;1;0;0;0;1;0
0;1;0;0;0;0;0;0;1;0
0;1;0;0;0;0;0;0;1;0
1;1;0;0;1;0;0;0;0;0
1;1;0;1;0;0;1;1;1;1
