2;15;10
9;7
1;1
5;4;5;1;3;5;4;3;2;2;1;4;3;3;3
2;5;5;4;5;1;4;1;5;5;1;1;3;3;4
0;1;0;1;0;0;0;1;1;0;0;0;0;0;1
1;1;0;1;1;0;0;1;1;0;1;0;0;1;0
1;1;0;1;1;1;0;0;0;0;0;1;1;1;0
1;1;1;1;0;1;1;0;0;0;1;1;0;1;1
1;0;0;1;0;0;1;0;0;1;1;0;1;1;0
0;0;0;1;0;1;0;1;0;1;1;1;0;0;0
0;1;1;0;1;0;0;0;1;0;0;0;1;1;1
1;0;1;0;0;0;0;1;1;1;0;0;0;0;1
0;1;0;0;0;1;1;1;1;0;1;0;1;1;0
1;0;1;1;0;0;1;1;1;1;0;1;1;1;0
