2;15;10
7;7
2;1
4;3;5;5;5;3;2;1;3;5;5;5;2;2;1
1;1;4;1;5;4;2;1;1;3;4;5;5;5;1
0;1;0;0;0;0;0;0;0;0;0;0;0;1;0
1;1;1;0;1;0;0;0;1;1;0;0;0;1;0
0;0;1;1;0;0;1;1;0;0;0;0;0;1;0
0;1;0;0;0;0;0;0;0;1;1;1;0;0;1
0;0;0;0;0;1;1;0;0;0;0;1;0;1;1
0;1;0;0;1;0;1;0;1;0;1;0;1;0;1
1;1;0;1;1;0;1;1;1;0;0;1;0;1;0
1;1;1;0;0;1;0;0;1;1;0;0;1;0;0
0;1;0;0;0;0;0;1;0;0;1;1;1;0;1
1;0;1;0;1;1;0;0;0;1;1;0;1;0;0
