2;15;10
5;8
1;1
3;3;NA;4;NA;NA;NA;3;NA;NA;2;NA;1;4;5
3;5;3;4;4;4;4;1;1;5;2;3;3;4;5
0;0;1;0;0;1;0;0;1;0;1;0;0;0;1
0;1;1;0;1;1;1;0;0;1;1;0;1;1;0
0;1;1;1;0;1;1;0;1;1;0;1;1;1;0
0;0;1;0;0;1;1;0;0;0;0;1;0;0;1
0;1;1;0;0;0;0;0;1;0;1;1;1;0;1
0;0;1;1;1;0;1;0;1;1;0;0;1;0;1
1;0;0;0;1;1;1;1;0;1;0;1;0;1;0
1;1;0;1;1;1;1;0;1;1;0;1;0;1;0
0;0;1;0;1;1;0;0;1;1;1;1;1;0;1
0;0;1;0;1;0;0;0;0;0;1;0;0;1;0
