2;15;10
3;10
1;1
NA;NA;NA;2;NA;NA;NA;NA;NA;NA;NA;NA;NA;NA;4
3;2;4;1;1;1;5;3;1;5;1;3;2;5;4
1;0;1;0;1;1;1;1;1;0;0;1;0;1;0
1;1;1;1;0;0;1;0;1;0;0;1;0;0;0
0;1;0;1;1;0;0;1;0;1;1;1;1;1;0
0;1;0;0;0;1;0;0;1;0;0;0;1;0;0
1;1;0;0;1;1;1;1;1;1;1;0;0;0;0
1;1;1;0;1;0;0;0;1;1;0;0;0;1;0
0;1;0;0;1;1;0;1;0;0;0;1;1;0;1
0;0;1;0;1;0;0;0;0;1;1;1;0;1;1
0;1;1;0;0;0;0;1;0;0;1;0;1;0;1
1;0;1;1;0;1;1;1;0;1;1;1;0;1;0
