2;15;10
6;7
1;2
1;4;3;4;2;NA;1;1;4;2;5;2;5;3;4
1;5;4;1;5;4;4;1;5;5;2;2;4;4;2
1;0;0;0;0;1;0;0;0;1;1;0;0;0;0
1;0;0;0;0;0;1;0;0;1;1;0;0;0;0
1;1;1;0;0;1;1;0;0;0;0;0;0;1;1
0;0;0;0;0;1;0;0;0;0;0;0;0;1;1
0;0;0;1;0;1;0;1;1;1;0;1;0;0;0
0;0;1;1;1;1;0;1;0;0;0;0;0;1;0
0;1;1;0;0;1;0;1;0;1;0;1;1;1;1
0;1;1;0;1;0;0;0;0;1;1;1;0;0;0
0;0;0;0;1;0;1;1;1;0;0;0;0;1;0
1;1;1;1;1;1;1;0;0;0;1;0;1;0;1
