3;20;15
1;4;6
1;1;2
NA;NA;1;NA;NA;3;NA;NA;NA;NA;NA;NA;NA;4;NA;1;NA;NA;5;NA
NA;5;2;2;4;5;3;2;4;4;3;1;NA;5;4;3;NA;NA;5;2
5;2;2;1;2;4;5;2;5;4;3;5;3;3;2;5;5;5;1;1
0;0;0;1;0;0;0;0;0;0;0;0;1;0;0;1;0;1;0;1
1;0;0;0;1;0;1;0;0;0;1;0;1;0;0;0;1;1;0;0
0;1;0;1;1;0;0;0;0;1;0;1;1;0;0;0;0;1;0;0
1;0;0;0;0;0;0;0;0;0;1;0;0;0;1;0;1;0;0;0
0;0;1;0;0;0;1;0;0;0;0;0;0;0;0;0;0;0;0;1
1;1;0;0;0;0;0;0;0;0;0;1;0;0;0;0;0;0;0;0
1;0;0;0;0;0;1;1;0;1;1;0;0;0;1;0;0;1;0;0
0;0;0;0;0;0;0;0;1;0;0;0;0;0;0;0;0;1;0;0
0;0;0;0;0;0;1;1;0;0;0;0;1;0;0;0;1;0;0;1
1;0;0;0;0;0;0;1;0;0;0;0;0;0;0;0;0;0;1;1
0;0;0;0;0;1;0;0;0;0;0;0;0;0;1;0;1;0;0;0
0;0;0;0;0;0;0;0;1;0;0;0;0;0;1;0;1;0;0;0
0;1;0;0;0;0;0;0;0;0;0;0;0;0;0;0;0;0;0;0
0;0;0;0;0;0;0;0;0;0;0;0;1;0;0;0;0;0;0;0
0;0;0;1;0;0;0;1;0;0;1;0;0;1;0;0;1;0;0;0
