3;20;15
5;8;10
1;1;2
NA;NA;NA;NA;NA;NA;2;NA;NA;3;1;NA;4;5;NA;5;2;3;4;1
1;2;3;3;NA;5;4;NA;3;5;3;2;3;5;2;2;1;4;3;2
3;1;3;5;4;4;3;1;5;3;2;2;5;1;4;1;5;5;1;1
0;0;1;0;1;1;1;1;0;0;0;0;0;1;1;1;1;1;0;0
0;1;0;0;0;1;0;1;1;0;0;1;0;0;0;0;0;1;0;0
1;0;0;1;0;1;1;1;0;1;0;1;1;0;1;1;0;0;0;0
1;1;1;1;1;0;0;1;0;0;0;0;0;0;1;1;0;0;1;0
0;1;1;0;1;1;0;1;1;0;0;1;0;0;0;0;0;0;1;0
1;1;0;1;0;0;0;0;0;1;0;1;1;0;0;0;1;0;1;0
1;1;0;0;1;0;1;1;1;0;1;1;0;1;0;0;0;0;0;1
1;0;0;0;1;1;0;1;0;0;0;0;0;0;1;1;1;0;0;0
0;0;1;1;1;1;0;0;1;0;0;0;0;0;1;0;0;1;0;0
0;1;1;0;0;0;1;1;1;0;1;1;0;0;1;0;0;0;0;0
0;0;0;1;0;1;0;0;1;1;0;0;0;0;0;0;0;1;1;1
1;0;1;1;0;0;0;1;0;0;0;0;1;1;0;0;0;0;0;1
0;1;1;0;1;1;1;1;0;1;1;0;1;0;0;0;0;0;0;1
0;0;1;1;1;0;0;0;1;0;0;0;0;1;0;0;0;0;1;1
0;1;0;0;1;0;0;0;0;1;0;0;0;0;1;0;1;1;0;0
