3;20;15
10;12;11
2;2;1
3;5;2;3;5;3;4;1;4;4;2;4;4;NA;1;1;NA;5;NA;5
5;2;4;1;3;1;2;3;4;2;2;3;2;2;4;4;4;1;4;1
5;2;4;3;3;5;3;2;1;2;5;5;5;2;1;1;4;4;4;2
1;0;1;0;0;1;0;0;0;0;1;1;0;1;0;0;0;1;1;0
0;1;0;1;1;0;1;0;0;1;0;1;0;1;1;1;1;0;1;0
0;0;0;0;0;0;0;0;0;0;1;0;1;0;0;0;1;1;0;0
0;0;0;0;0;1;1;1;0;0;0;0;0;1;1;0;1;0;1;0
0;1;1;1;1;0;1;0;0;1;1;0;1;1;0;0;1;0;1;1
1;0;0;1;0;0;0;1;0;0;0;1;1;1;0;1;1;0;1;1
1;1;1;0;1;1;1;1;0;0;1;0;0;1;0;0;0;1;1;0
0;0;1;0;1;1;0;0;0;1;0;1;1;1;1;0;1;1;1;1
1;0;1;0;1;1;1;1;1;0;1;1;0;0;1;1;1;0;0;1
1;1;0;0;1;0;1;0;1;0;0;0;0;1;0;0;1;0;1;1
0;0;1;1;1;1;0;1;1;0;1;0;0;1;1;1;1;0;1;1
1;0;0;0;1;1;1;0;1;0;1;0;1;0;0;1;0;0;0;0
1;0;1;0;1;0;0;1;1;1;1;1;0;1;1;0;1;0;1;0
1;0;1;1;1;1;0;0;1;1;1;0;0;0;1;0;1;1;0;1
1;0;0;0;0;0;0;1;1;0;1;0;1;1;1;0;0;0;1;0
