2;15;20
8;12
2;2
2;1;1;4;1;4;4;NA;1;1;NA;3;4;NA;2
2;5;1;1;1;2;5;5;3;5;3;3;5;2;2
0;0;1;0;0;0;0;1;1;0;1;0;0;1;1
0;0;0;1;1;0;0;0;0;1;0;0;0;0;0
1;1;0;0;0;0;0;1;0;0;0;0;0;1;0
0;0;0;0;0;0;0;1;0;0;1;0;0;1;1
0;0;1;0;1;0;0;1;1;0;1;0;0;0;0
1;1;0;0;0;0;0;1;0;0;1;0;0;1;0
0;0;0;0;0;0;0;1;1;0;1;0;0;0;1
0;1;1;0;0;1;1;0;0;0;0;0;0;0;0
0;1;0;1;1;1;0;0;0;0;1;0;0;0;0
0;0;1;0;0;0;1;0;0;1;0;0;0;1;0
0;0;0;0;1;0;0;0;1;1;1;0;1;0;0
0;0;1;0;0;1;0;0;1;1;0;0;0;1;0
0;0;0;0;0;0;0;0;0;0;0;0;1;0;0
0;1;0;0;0;0;0;1;0;0;0;1;1;1;0
0;0;0;1;1;0;0;1;1;0;0;0;0;1;1
0;1;1;0;0;1;1;1;0;0;0;0;0;1;0
0;1;1;0;1;0;1;0;0;0;1;1;0;0;0
0;0;0;0;0;0;1;1;1;0;0;0;1;0;0
0;0;0;0;0;0;1;0;0;0;1;0;1;0;1
0;0;0;0;0;1;0;0;0;1;0;1;1;0;0
