2;15;20
15;13
2;2
2;5;3;3;3;5;3;1;5;3;1;3;4;5;3
3;3;2;3;4;5;1;3;5;2;3;3;1;2;2
0;0;1;0;1;1;1;0;0;0;0;0;0;0;1
0;0;1;0;0;1;0;1;0;1;1;1;0;1;0
1;0;0;0;1;1;0;0;1;1;0;1;1;1;0
1;1;1;0;1;1;1;1;1;0;0;0;0;0;1
0;1;0;1;0;0;1;1;0;0;1;1;0;0;0
1;0;0;0;1;1;0;1;1;1;1;1;0;0;0
0;0;1;1;0;0;0;1;0;1;1;0;1;0;1
0;1;1;1;1;1;0;0;0;0;0;1;1;0;1
0;1;1;0;0;0;0;1;1;1;0;1;0;0;0
0;1;0;0;1;1;1;1;1;1;1;0;1;0;1
1;1;0;1;0;0;1;1;0;1;1;0;1;0;1
1;1;1;1;0;1;0;0;1;1;0;1;1;0;1
0;0;1;1;0;0;1;0;1;1;1;1;1;0;0
0;1;1;1;0;0;0;1;0;1;1;1;0;0;1
0;0;0;1;1;0;0;1;1;0;0;0;1;1;1
0;0;1;0;1;0;1;0;0;0;0;1;1;0;0
1;1;0;0;1;0;0;0;1;1;1;1;1;0;1
0;0;1;0;0;0;1;1;0;0;1;1;0;1;0
0;0;1;0;1;1;0;0;0;1;0;0;1;0;1
0;0;0;0;1;1;1;0;0;1;1;1;0;1;1
