2;15;20
12;13
1;2
3;1;1;4;1;4;NA;3;1;2;5;3;2;3;NA
3;2;5;1;5;3;2;5;5;5;1;2;3;5;2
0;1;1;1;1;1;1;0;0;0;1;0;0;1;1
1;0;0;1;1;0;1;0;0;1;1;1;1;1;1
0;0;0;1;1;0;0;0;0;1;0;0;0;1;1
0;0;1;1;0;1;1;0;1;1;1;1;0;0;0
0;0;0;0;0;0;1;0;1;0;0;1;1;1;1
1;1;1;1;0;1;0;1;1;1;0;0;1;1;1
0;1;0;0;1;0;1;0;1;0;0;1;0;1;0
1;1;0;1;1;1;1;0;1;0;1;0;1;1;0
1;1;0;1;1;0;1;1;0;0;1;0;0;0;1
0;0;1;0;0;0;1;0;0;1;0;1;1;0;0
0;0;0;1;1;1;0;0;1;1;0;0;1;1;1
0;1;1;0;1;0;1;0;0;1;1;0;0;0;1
0;1;1;0;0;0;1;0;0;1;1;0;1;0;0
1;0;0;0;0;1;1;1;0;0;1;1;1;0;1
1;0;1;0;0;0;1;0;1;1;1;0;1;0;1
0;0;1;0;0;1;0;1;1;0;1;1;0;1;0
1;0;0;0;0;0;0;1;1;1;0;1;1;0;1
0;0;0;1;0;1;0;0;0;1;0;0;0;0;1
1;1;1;1;0;1;0;1;0;0;1;1;1;0;1
0;1;1;1;0;0;1;1;0;1;1;0;0;0;0
