2;15;20
11;9
2;1
3;4;4;4;1;5;5;5;5;2;1;5;1;3;4
4;4;5;5;5;4;3;2;3;3;4;3;4;4;2
0;0;0;1;0;0;0;1;1;0;0;0;0;0;1
1;1;0;0;1;0;0;1;0;0;1;0;0;1;0
0;0;0;0;1;0;0;1;0;0;0;0;0;0;1
1;0;0;0;0;0;1;0;1;0;1;1;0;0;1
0;0;0;0;0;0;1;0;0;1;0;0;0;0;1
1;0;0;0;1;1;0;0;0;1;0;1;1;0;0
1;0;1;1;0;1;0;0;1;0;1;0;0;1;0
0;0;0;1;0;0;0;0;1;0;0;0;1;0;0
1;0;0;0;0;0;1;1;0;1;0;1;0;1;0
1;1;1;1;0;0;0;0;0;1;0;0;1;0;0
1;0;0;0;1;0;1;0;1;0;0;0;0;0;0
0;1;0;0;0;1;0;0;1;0;0;0;0;0;0
0;0;0;0;0;1;0;0;0;0;0;0;0;0;0
0;0;0;0;0;0;0;0;0;0;1;0;0;0;0
0;0;1;1;0;0;1;0;1;0;0;0;1;0;0
0;0;0;1;0;1;1;0;0;0;0;0;0;0;1
0;0;0;0;1;0;0;1;1;0;0;1;0;0;1
0;1;0;1;0;0;0;0;1;1;1;0;1;0;0
1;1;1;0;0;0;0;0;0;0;0;0;0;0;0
0;1;0;0;0;1;1;0;0;0;1;1;1;1;1
