2;15;20
9;7
1;1
5;1;3;2;5;5;2;1;2;5;2;2;2;4;1
1;1;1;5;2;3;1;1;1;5;5;5;1;4;3
0;0;1;1;0;0;0;1;0;0;0;0;0;0;0
0;1;1;0;0;0;0;0;1;0;0;0;0;0;0
0;0;1;0;0;0;0;0;0;0;0;0;0;0;0
0;0;0;0;0;0;0;0;1;0;0;0;1;0;0
0;1;0;0;0;0;0;1;0;0;0;0;0;0;0
0;0;0;0;0;0;1;0;0;0;0;0;0;1;0
1;1;0;1;0;1;0;0;0;0;0;0;0;1;0
0;0;0;1;0;0;0;0;1;0;0;0;1;0;0
0;0;0;0;0;0;0;0;0;0;1;0;0;0;1
0;0;0;0;0;0;0;1;0;1;0;0;0;0;0
0;0;0;0;0;1;1;0;0;0;0;0;0;1;0
1;1;0;0;0;0;0;0;1;1;0;0;0;1;0
0;1;0;0;1;1;0;1;0;0;0;1;1;0;0
0;0;0;0;0;0;0;0;0;0;1;0;0;0;0
0;1;0;0;1;1;0;0;0;1;0;0;0;0;1
0;0;1;1;0;0;1;0;1;0;0;1;0;0;0
1;0;0;0;0;0;0;0;0;0;0;0;1;0;0
0;1;0;0;1;0;0;0;0;0;0;0;1;0;1
0;0;0;0;0;0;0;0;0;0;0;1;0;0;1
0;0;0;0;0;0;0;1;0;1;0;0;0;0;0
