2;15;20
5;16
2;2
NA;NA;NA;NA;4;NA;NA;NA;NA;5;NA;NA;NA;NA;NA
1;2;1;4;4;1;1;4;5;5;3;1;2;5;4
1;1;0;0;0;0;0;0;1;1;1;0;1;0;0
0;1;0;0;0;1;0;1;1;1;1;0;1;0;0
1;1;0;1;0;0;0;0;1;1;0;0;0;0;1
0;1;1;1;0;1;0;1;1;0;0;0;0;1;1
0;0;1;0;0;1;1;0;0;1;1;1;1;0;1
0;1;1;0;1;0;1;0;0;0;0;1;1;0;0
0;0;1;0;1;0;0;1;1;1;0;0;0;0;1
0;1;1;0;0;0;0;0;1;0;0;1;0;0;0
0;0;0;1;1;1;1;0;1;0;0;1;1;1;0
1;1;0;0;0;0;1;0;0;0;1;1;0;0;0
0;1;0;0;0;1;1;1;1;0;0;1;0;0;1
1;1;0;0;1;0;0;0;0;0;1;0;1;0;0
0;1;0;1;0;1;0;1;1;0;0;1;0;0;1
0;1;0;0;0;1;0;0;0;0;1;1;1;0;1
0;1;0;0;0;1;1;0;1;0;0;1;0;0;1
1;0;1;1;0;0;1;1;1;0;1;0;0;1;0
0;0;0;0;0;0;0;0;0;0;0;1;0;1;1
0;0;0;0;0;1;1;0;1;0;1;0;0;0;0
1;0;0;0;0;1;0;0;1;0;0;0;1;1;0
1;0;0;1;1;0;0;0;0;0;1;0;0;1;0
