2;15;20
6;9
2;1
2;NA;3;NA;3;NA;2;NA;2;1;NA;3;1;2;NA
2;5;5;3;2;3;2;2;1;1;1;3;3;1;2
0;1;0;0;1;1;0;1;1;0;0;0;0;0;0
0;0;0;1;1;0;0;0;1;0;0;1;0;0;0
1;0;0;1;1;1;0;1;0;0;0;1;0;0;0
0;1;0;1;0;0;0;0;0;0;1;0;1;0;1
1;0;0;0;0;0;0;1;0;0;1;0;0;0;0
0;0;0;0;0;0;0;1;0;0;1;0;0;0;0
0;0;1;1;0;0;0;1;0;0;1;0;1;0;1
0;0;0;0;0;1;0;1;0;1;1;0;0;0;0
0;1;0;1;1;1;1;0;0;0;0;1;1;0;0
0;0;1;0;0;1;0;0;0;0;0;1;0;0;0
0;0;0;0;0;1;0;1;0;1;0;0;0;1;1
0;0;0;0;0;0;0;0;1;0;1;0;0;0;0
1;1;1;0;1;0;0;1;1;0;0;1;1;0;0
0;1;0;0;0;0;1;0;0;0;0;0;0;0;1
0;1;0;0;0;1;0;0;0;1;0;0;0;1;0
0;0;1;1;0;0;0;0;0;0;1;0;0;0;1
0;0;0;1;0;1;1;0;0;1;0;0;0;0;1
0;0;1;0;0;0;1;0;0;0;1;1;0;1;0
0;1;0;1;0;0;1;0;0;0;1;0;0;0;0
0;0;1;1;0;1;0;0;0;0;0;0;1;0;1
