2;15;20
9;11
2;1
3;3;5;2;5;2;3;1;NA;3;5;5;2;3;1
4;3;5;3;1;1;5;1;3;5;3;3;2;3;3
1;1;1;0;0;0;1;0;0;1;0;1;1;0;1
1;1;0;1;0;0;0;1;0;0;1;1;0;0;1
0;0;0;0;0;0;0;0;1;0;0;1;1;0;0
0;0;0;0;1;0;0;0;0;1;1;0;0;0;0
0;0;1;1;0;0;0;0;0;0;1;1;0;0;0
1;0;0;0;1;0;0;0;1;0;0;0;0;0;0
0;0;0;1;0;1;0;0;1;0;0;0;0;0;0
0;0;1;0;0;1;0;1;0;1;0;1;0;1;0
0;0;0;1;0;0;1;0;1;0;1;0;0;0;0
1;0;0;1;0;1;0;0;1;0;0;1;0;1;0
0;0;0;0;1;0;1;0;1;0;0;0;0;0;1
0;1;0;1;0;0;0;0;0;0;0;0;1;0;1
0;1;0;1;0;0;1;0;1;0;0;0;0;1;0
0;1;0;0;0;0;0;0;1;0;1;0;1;1;0
0;1;1;0;1;0;0;0;1;0;0;0;0;0;1
1;0;0;0;0;1;1;0;0;0;1;0;0;0;0
0;0;0;0;1;1;0;0;1;1;0;0;1;0;0
0;0;0;1;0;0;1;0;0;0;1;0;0;0;0
0;0;1;0;0;0;0;0;0;1;1;0;0;0;1
0;1;0;0;0;0;0;0;1;0;1;1;0;0;0
