2;15;20
2;7
2;2
NA;NA;NA;2;NA;NA;NA;1;NA;NA;NA;NA;4;2;NA
4;4;1;2;4;2;4;4;3;5;4;2;1;5;3
1;1;0;1;0;0;0;0;0;1;0;0;0;0;0
0;1;0;0;0;0;1;0;0;0;0;0;0;0;0
0;0;0;0;1;0;0;0;1;0;0;0;0;0;0
0;0;0;0;0;1;0;1;0;0;0;0;0;0;0
0;0;0;0;0;0;0;1;0;0;0;0;0;0;0
0;0;0;0;0;1;0;0;0;0;0;0;0;1;1
0;1;1;0;0;0;0;0;1;1;0;0;0;1;0
1;1;0;0;0;0;0;0;0;0;1;1;0;0;0
1;0;0;0;1;0;1;0;0;0;0;0;0;0;1
0;0;0;0;0;1;0;0;0;0;0;1;0;0;0
1;0;0;0;1;0;0;0;0;0;0;0;1;0;1
0;1;1;1;0;0;0;0;0;0;0;0;0;0;1
0;0;0;0;1;0;0;0;0;0;1;1;0;0;0
0;0;0;0;0;0;1;0;0;1;0;0;0;0;0
0;0;0;0;0;1;0;0;1;1;0;0;0;0;0
1;0;1;0;0;0;0;0;0;0;1;0;0;0;0
0;1;0;0;0;1;0;0;0;0;0;0;0;0;0
0;1;0;0;1;1;1;0;0;1;0;0;0;0;0
1;0;0;0;0;0;0;0;1;0;1;1;0;0;0
0;0;0;0;0;0;0;0;0;0;0;0;0;0;1
