2;15;20
4;6
2;1
NA;NA;4;2;3;NA;2;1;NA;NA;1;NA;NA;NA;1
2;4;3;1;5;2;3;2;2;2;5;2;3;1;1
1;0;0;0;0;1;0;0;0;0;0;1;0;0;0
1;0;0;0;0;0;0;0;0;0;0;0;1;0;0
0;0;1;0;0;0;0;0;0;0;0;0;0;0;1
1;0;1;0;0;0;0;0;1;0;0;0;0;0;1
0;0;0;0;0;0;0;0;1;0;0;0;1;0;0
0;0;0;0;0;0;1;0;0;0;0;0;0;0;0
0;0;0;0;0;1;0;0;1;1;0;0;0;0;0
0;1;0;1;0;0;0;0;0;0;0;0;0;0;0
0;0;0;1;0;0;0;0;0;0;0;1;0;1;0
0;1;0;0;0;0;0;0;1;1;0;0;1;0;0
0;0;0;0;0;0;0;1;1;0;0;0;0;0;0
0;0;0;0;0;0;0;1;0;0;0;1;0;1;0
0;1;0;0;0;0;0;0;0;1;1;0;1;0;0
1;0;0;0;0;0;1;0;1;0;0;0;0;1;0
1;0;0;0;1;1;0;0;0;0;0;0;1;0;0
0;0;0;1;0;0;0;1;0;1;0;0;0;1;0
0;1;0;0;0;0;0;0;0;0;1;0;0;0;0
0;1;0;0;0;1;0;1;0;1;0;1;0;0;0
0;0;0;0;0;0;0;0;0;0;0;1;0;1;0
0;0;1;0;0;1;0;0;0;0;0;1;0;1;0
