2;20;20
8;8
2;2
1;5;5;3;2;5;4;2;2;4;5;3;1;4;5;3;5;4;5;3
1;4;4;3;4;1;2;5;2;5;2;3;1;2;4;5;3;4;4;4
0;1;0;0;0;1;0;0;1;0;0;0;0;0;1;0;1;0;0;0
0;0;0;0;0;1;0;0;0;1;0;0;0;0;1;0;1;0;0;0
0;1;1;0;1;0;0;0;0;0;0;1;0;0;0;1;1;0;0;1
1;0;0;0;0;0;0;0;0;0;0;0;0;0;0;0;0;0;1;0
0;1;0;0;0;1;0;0;1;1;0;0;0;0;0;1;0;1;0;0
0;0;1;0;0;1;0;0;0;0;1;0;1;0;0;0;0;0;0;1
0;0;0;1;0;0;0;0;0;0;0;0;0;0;0;0;0;0;0;0
0;0;1;0;0;0;1;0;0;0;1;0;0;0;0;0;1;1;0;0
0;0;1;1;0;0;0;1;0;0;0;1;1;0;0;0;0;0;1;0
0;0;0;0;0;0;0;0;0;0;0;0;1;0;0;1;1;0;0;0
0;0;0;0;0;0;0;0;1;1;0;1;1;0;0;0;1;1;0;0
1;0;0;0;0;1;1;0;0;1;0;0;0;0;0;1;0;0;0;0
0;0;0;0;0;0;0;0;0;0;1;1;0;0;0;0;0;0;0;1
0;0;1;0;0;0;0;0;1;0;0;0;1;0;0;0;0;0;0;0
0;0;0;0;0;0;0;1;0;0;0;1;0;0;0;0;0;0;0;0
0;0;0;0;0;1;0;1;0;1;0;0;1;0;0;0;0;0;0;1
1;0;1;0;0;0;0;0;0;0;0;0;0;1;0;0;0;0;0;0
0;0;0;1;1;0;0;0;0;0;0;0;1;0;0;0;0;0;0;0
0;0;0;1;0;0;0;0;0;0;1;0;0;1;0;0;0;0;0;0
1;0;0;0;0;0;1;1;0;0;0;0;0;0;0;0;0;0;0;0
