2;20;20
19;13
1;1
2;5;3;1;2;4;5;4;4;3;3;3;4;2;2;4;1;2;5;2
3;5;4;4;1;2;5;5;5;1;5;3;4;3;2;1;4;5;4;1
1;1;1;1;1;1;0;1;1;0;1;0;0;1;0;1;0;1;1;1
1;1;1;1;0;0;0;1;1;1;0;0;0;1;0;0;0;1;1;0
0;1;0;1;0;0;0;0;1;1;1;1;1;1;1;1;0;0;0;0
0;0;1;1;0;0;0;0;1;0;0;1;0;0;0;0;1;0;0;1
1;0;0;1;0;0;0;1;1;1;0;1;0;0;1;0;0;1;1;1
0;1;0;1;1;0;0;1;1;0;1;0;0;0;0;1;1;1;1;1
1;1;0;1;0;1;1;1;1;0;1;0;0;1;1;0;1;1;1;0
0;0;1;1;1;1;0;1;0;0;0;0;1;0;1;0;1;1;1;0
1;0;1;1;1;1;1;0;0;0;0;0;0;1;0;1;1;0;1;0
0;1;0;1;1;0;0;0;1;1;0;0;1;1;0;0;0;1;0;0
0;0;1;0;0;1;1;1;0;0;1;1;0;1;1;0;1;1;0;1
1;1;0;0;0;0;1;1;0;1;0;1;0;0;1;0;0;1;0;1
0;1;0;0;0;0;0;1;0;1;1;0;0;0;1;1;1;1;1;0
0;1;0;0;0;0;1;0;0;0;1;1;0;0;1;0;0;0;0;1
1;0;0;1;0;1;0;0;0;1;0;1;0;0;0;1;1;1;0;1
1;0;1;0;0;1;1;1;0;1;0;0;1;0;0;1;1;0;0;1
0;0;0;1;0;0;0;0;1;0;1;1;1;1;1;1;0;0;0;1
1;1;1;0;0;1;0;0;1;1;0;1;0;0;1;0;1;1;1;1
0;1;0;0;0;1;1;0;0;1;1;1;0;0;1;1;1;0;1;0
0;1;0;1;1;1;1;1;1;0;0;0;1;0;1;1;1;1;1;0
