2;20;20
10;16
1;1
5;2;NA;5;3;2;5;NA;2;4;2;2;4;5;2;4;1;4;1;3
2;3;5;2;3;1;1;3;1;1;2;5;3;4;4;1;2;4;4;2
1;0;1;1;1;1;1;1;0;0;0;1;0;0;0;0;1;0;0;1
0;0;0;1;0;1;0;0;0;0;0;0;1;1;0;0;0;1;0;1
0;0;1;0;0;0;1;1;0;1;1;0;0;0;1;0;0;1;1;0
1;0;0;0;0;1;1;1;1;1;0;0;0;1;0;0;0;1;0;1
1;1;0;0;0;0;0;1;1;0;1;0;0;0;0;1;1;0;1;0
0;1;1;1;1;1;0;1;0;0;0;0;0;0;1;0;1;1;0;0
0;1;1;0;0;0;0;1;0;0;1;0;0;0;0;1;0;0;0;0
0;0;1;1;0;1;1;0;0;0;1;1;0;0;1;0;0;0;1;1
1;1;1;1;0;0;0;1;0;0;1;0;1;1;1;0;1;0;0;1
0;1;0;1;0;0;1;1;0;0;1;0;0;0;0;1;1;1;1;0
0;1;0;0;0;0;0;0;0;0;0;0;0;0;0;1;1;0;0;1
0;0;1;0;0;1;0;0;1;0;0;1;0;1;1;0;0;0;1;0
0;0;1;0;1;0;0;0;1;0;1;1;1;0;0;1;1;1;0;0
0;1;0;0;0;1;0;1;1;0;0;1;0;0;0;1;0;1;0;1
0;0;1;1;0;0;1;1;1;0;1;1;0;0;1;1;0;0;1;0
0;0;0;0;0;0;0;1;1;0;0;0;0;0;1;1;0;1;1;0
0;0;1;0;1;0;1;1;0;0;1;0;0;1;1;1;0;0;0;0
1;0;0;0;0;0;0;1;0;1;1;0;1;1;0;0;1;0;1;0
0;1;1;0;1;1;0;1;0;0;0;1;0;1;1;1;0;1;1;1
0;1;0;0;0;0;0;1;0;0;0;0;0;0;1;0;1;0;0;0
