2;20;20
3;6
1;1
NA;NA;1;NA;NA;3;NA;NA;4;5;2;4;NA;NA;NA;NA;NA;NA;NA;3
5;5;2;5;5;3;5;2;2;2;1;2;4;4;2;5;1;2;3;1
0;0;0;1;0;0;0;0;0;1;0;0;0;0;0;1;0;1;0;0
1;0;0;0;0;0;0;0;0;0;0;0;0;0;1;1;0;1;0;0
1;0;0;0;0;0;0;0;0;0;0;0;1;0;0;0;0;1;1;0
0;0;0;0;1;0;0;0;0;0;0;0;0;0;0;0;0;1;0;0
0;0;0;0;0;0;0;1;1;0;0;0;0;1;0;1;0;0;0;0
0;0;0;0;0;1;0;0;0;0;0;0;0;1;0;0;1;0;1;0
1;0;1;0;0;0;0;0;0;0;0;1;0;0;0;0;1;0;0;0
1;0;0;0;0;0;0;1;0;0;0;0;0;1;0;0;0;0;0;0
0;0;0;0;0;0;0;0;0;0;0;1;0;1;0;1;0;0;1;0
0;0;0;1;0;0;1;0;0;0;0;0;0;0;1;1;0;0;0;0
0;1;0;0;0;1;0;0;0;0;0;0;1;0;1;0;0;0;0;0
0;1;0;1;0;0;0;0;0;1;0;0;0;1;0;0;0;1;0;0
0;0;0;0;1;0;0;0;1;0;0;0;0;0;0;0;0;0;0;0
0;0;0;0;0;0;1;0;1;0;0;0;0;0;0;1;1;0;0;0
0;1;0;0;0;0;0;1;0;0;0;0;1;0;1;0;0;0;0;0
1;0;0;1;0;0;1;0;0;0;0;1;0;0;0;0;0;0;0;1
0;1;1;0;1;0;0;0;0;0;0;0;0;0;0;0;1;0;0;0
0;0;0;0;0;0;0;0;0;1;0;0;0;0;0;0;1;1;0;0
0;1;0;1;1;0;1;1;0;0;1;0;0;0;0;0;0;0;1;0
0;0;0;1;1;0;0;0;0;0;0;0;1;0;1;0;1;0;0;0
