2;20;20
13;13
1;2
5;4;4;2;1;4;3;5;4;1;3;4;1;2;1;2;3;5;2;2
4;3;4;4;1;5;1;2;2;4;3;4;5;4;3;1;5;2;3;2
0;1;1;1;0;1;0;0;0;0;1;1;1;0;0;1;0;1;0;0
1;1;0;1;1;1;1;1;1;0;1;0;0;1;0;1;1;1;1;0
1;0;1;0;0;0;0;0;0;1;0;1;1;0;0;0;1;0;0;0
1;0;0;1;1;1;0;0;1;1;1;0;0;0;1;0;0;0;0;1
0;1;1;1;0;1;1;1;0;0;1;0;1;0;1;0;0;0;1;1
1;1;1;1;1;1;1;0;0;0;0;1;1;0;1;1;1;1;0;0
1;1;0;0;1;0;1;1;0;1;1;1;0;0;0;1;1;1;0;1
0;1;1;0;1;1;1;0;1;1;0;0;1;0;1;1;0;0;0;0
0;0;1;0;0;0;0;1;1;0;0;0;1;0;0;0;0;0;0;0
0;1;1;1;0;0;0;1;0;1;0;1;1;1;0;0;1;1;0;1
0;1;0;0;0;0;0;1;1;1;0;0;0;1;0;0;1;1;1;0
1;0;0;1;1;0;0;0;1;1;0;0;0;0;1;0;1;0;1;1
1;1;1;0;0;0;1;0;0;0;0;0;0;1;1;1;1;0;1;1
1;1;1;0;0;1;0;0;1;0;0;1;1;1;1;0;0;0;0;1
1;1;0;1;0;1;1;1;1;1;0;0;0;0;1;0;1;1;1;0
1;1;1;0;0;0;1;0;0;1;0;1;1;0;0;1;0;1;1;1
0;0;0;1;0;1;0;0;0;0;0;1;1;1;1;0;1;0;0;1
0;0;0;1;1;0;1;1;0;1;0;0;1;1;1;1;1;1;0;0
0;1;1;1;1;1;1;1;0;1;0;1;1;0;0;0;1;0;1;1
1;0;0;1;1;1;0;1;0;1;0;0;0;0;1;0;1;1;0;0
