2;20;20
5;9
2;2
4;NA;4;NA;3;2;1;2;2;NA;1;4;4;3;1;3;3;2;3;4
2;4;3;1;5;3;2;1;1;5;3;1;5;2;5;1;2;1;5;2
1;0;0;1;1;0;1;0;0;0;0;0;0;0;0;0;0;1;0;0
0;0;0;0;0;1;0;0;1;1;0;0;0;0;0;0;0;0;0;0
0;0;0;1;0;0;0;0;0;1;0;1;0;0;0;0;1;0;0;1
0;0;0;1;0;0;0;1;0;1;1;0;0;0;0;0;1;1;1;0
1;0;0;1;0;0;0;0;0;0;0;0;0;0;0;0;0;0;0;0
1;1;1;0;0;0;1;0;0;0;0;0;1;0;1;0;0;0;0;0
0;0;0;0;1;0;0;0;0;1;0;0;0;1;0;0;0;0;0;0
0;0;0;0;0;0;0;0;0;1;0;0;0;0;0;0;1;0;0;0
0;0;0;0;1;0;1;1;0;1;0;0;0;0;0;0;0;0;0;0
0;0;0;0;0;1;0;0;0;0;0;0;1;0;0;0;0;0;0;0
0;1;1;1;0;0;0;0;0;0;0;0;0;0;0;1;0;0;0;0
0;1;0;1;0;0;1;0;0;1;0;0;0;1;1;0;0;0;0;0
0;1;0;0;0;0;0;0;1;0;0;0;0;1;1;0;0;0;0;0
0;0;0;0;0;0;0;0;0;0;0;0;1;1;0;0;1;0;0;1
0;1;1;1;1;1;0;0;0;0;0;0;0;0;0;1;0;1;0;0
0;1;0;0;0;0;0;0;0;0;0;0;0;0;0;0;0;0;1;0
0;0;1;1;0;0;0;0;0;1;0;1;0;0;0;0;1;0;0;0
0;0;0;0;0;0;0;1;0;0;1;0;1;0;0;0;0;0;0;0
0;1;0;0;0;0;0;0;0;0;0;0;0;0;0;0;0;0;0;0
0;0;0;1;0;0;0;1;0;1;1;0;0;0;0;0;0;1;0;0
