3;10;20
8;11;12
1;2;1
NA;3;4;NA;NA;1;5;2;1;4
1;3;1;5;NA;2;1;2;5;5
3;4;5;4;3;4;4;2;4;4
0;0;1;0;0;1;1;0;0;0
1;0;1;0;1;0;1;0;1;1
1;1;0;1;1;0;1;0;0;0
0;1;0;1;1;0;0;0;0;0
0;1;1;1;1;0;0;0;1;0
1;1;0;0;1;1;1;0;0;0
1;0;1;1;1;0;1;0;1;0
0;1;1;0;0;0;0;0;0;0
1;0;0;1;1;0;0;0;1;1
1;0;0;0;1;0;0;1;0;1
1;1;0;0;0;0;1;0;0;1
0;1;0;0;0;1;1;0;0;1
0;0;1;0;0;1;0;1;0;1
1;0;0;0;1;1;0;1;0;1
0;0;1;1;0;0;0;0;0;0
0;0;0;1;1;0;1;0;0;0
1;1;0;0;1;0;0;1;0;1
0;0;0;1;1;0;0;0;1;0
0;0;0;1;0;1;0;0;1;0
0;0;0;0;0;1;0;1;1;0
