3;10;20
6;8;12
2;2;1
5;1;NA;NA;NA;NA;NA;NA;4;NA
5;2;NA;NA;1;NA;NA;4;3;4
5;5;2;2;2;1;1;3;3;1
0;0;0;0;0;0;1;1;1;0
0;0;1;0;0;0;0;0;0;0
1;0;0;0;0;1;1;0;0;1
0;1;0;1;0;1;0;0;1;1
0;0;0;0;0;1;0;1;0;1
0;0;1;0;1;1;1;1;1;1
0;0;1;1;1;0;0;0;0;1
1;1;1;1;1;0;1;0;0;0
1;0;1;0;1;0;0;0;0;0
1;0;1;0;0;0;1;0;0;1
0;0;0;0;0;1;1;1;0;0
0;1;1;1;1;1;0;0;0;0
0;0;0;1;1;0;1;0;0;0
1;0;0;1;0;1;1;1;1;0
0;0;1;1;0;0;1;1;0;1
0;1;0;1;0;0;1;0;1;0
0;0;1;0;0;1;0;0;0;0
0;0;0;1;0;0;0;1;0;0
0;0;1;1;1;1;0;1;0;1
1;1;1;0;0;0;0;0;1;0
