3;10;20
10;8;11
1;1;2
2;4;2;3;5;4;1;3;3;3
2;3;4;2;2;3;2;3;2;3
5;4;1;1;2;4;1;5;1;2
1;0;0;0;0;1;0;1;0;0
1;1;0;0;0;0;0;0;1;0
1;0;0;0;0;0;1;0;1;0
0;0;1;0;0;1;0;0;0;0
0;0;0;0;0;0;0;1;0;0
1;0;0;1;0;1;1;0;1;0
0;1;0;1;0;0;1;0;1;0
0;1;1;1;0;0;0;1;0;0
1;0;1;1;1;0;0;1;1;0
0;0;0;0;1;0;0;1;1;1
0;1;0;0;1;0;1;0;0;1
0;0;0;0;0;0;1;1;0;0
1;0;0;0;0;0;1;0;0;0
0;0;0;1;1;1;0;0;0;1
0;1;0;0;1;0;0;0;0;0
1;0;0;0;0;0;0;0;0;0
0;0;0;1;1;0;0;0;0;1
0;0;0;0;0;0;0;1;0;0
1;0;0;1;0;1;0;0;0;0
0;0;1;0;1;0;0;0;0;1
