3;10;20
5;5;6
1;1;1
1;NA;3;1;2;5;4;3;5;1
3;NA;3;3;3;1;2;2;2;5
2;5;4;5;3;2;1;4;1;2
0;0;0;0;0;0;0;1;1;1
0;1;0;0;0;0;1;0;0;0
0;0;0;0;0;0;0;0;0;1
0;0;0;1;0;0;0;0;0;0
0;0;0;0;1;0;0;0;0;0
0;0;0;0;0;0;1;0;0;0
1;1;0;0;1;1;0;0;0;0
0;1;1;0;0;0;0;0;0;0
0;0;0;0;0;0;1;0;1;1
0;1;1;0;0;0;0;0;1;0
0;0;1;0;0;0;1;0;0;1
0;1;0;0;0;0;0;0;1;0
0;0;0;0;0;1;0;1;0;0
0;0;0;0;0;0;0;1;0;0
0;0;0;1;0;0;0;0;1;1
0;0;0;1;0;0;0;1;0;0
0;0;0;0;1;0;0;0;0;0
0;0;0;0;1;1;0;0;0;0
1;0;0;0;0;0;0;1;0;0
0;1;0;0;0;0;0;0;0;0
