3;10;20
13;20;17
2;1;1
3;1;4;1;2;5;1;3;5;5
4;5;2;4;4;5;3;1;5;1
1;4;4;3;3;2;4;4;2;1
0;0;0;1;1;1;0;1;0;1
1;0;1;0;1;0;0;1;0;0
1;0;1;1;0;1;1;0;1;0
0;1;0;0;1;0;0;1;1;1
0;1;0;1;0;0;1;0;1;0
1;0;0;0;1;0;0;0;0;0
1;1;0;0;0;1;0;0;1;1
0;0;0;0;0;1;0;1;0;1
1;1;0;1;0;0;0;1;1;1
0;0;1;1;0;1;1;0;1;1
0;0;1;0;0;1;1;0;1;1
0;0;1;1;0;0;1;1;1;1
0;0;0;0;1;0;0;0;0;0
1;1;1;1;1;0;0;1;0;0
1;1;1;1;0;0;1;1;1;1
0;1;0;0;1;1;1;1;0;1
0;0;1;0;1;1;1;1;1;0
0;1;0;1;0;0;1;1;1;0
1;1;1;1;0;0;1;1;0;0
1;0;0;1;0;1;1;0;0;1
