3;10;20
5;9;12
2;2;2
NA;NA;NA;NA;NA;NA;4;NA;NA;NA
4;3;NA;5;5;NA;2;1;3;3
3;2;2;4;2;2;4;3;3;2
1;0;1;1;1;0;0;0;0;1
1;1;0;1;0;1;0;0;0;0
0;0;1;0;1;1;0;0;0;0
0;0;0;0;0;1;0;1;1;0
0;1;0;0;0;0;0;0;1;0
0;1;1;1;1;1;0;1;0;0
0;1;0;0;0;1;0;0;0;0
1;0;1;1;0;0;1;0;0;1
1;1;1;1;1;1;1;1;0;1
1;0;1;1;0;0;1;1;0;0
1;1;0;1;0;1;0;0;0;1
0;0;0;1;1;0;0;1;0;0
0;0;0;0;0;0;1;1;0;1
0;0;1;0;0;0;0;0;1;0
1;0;0;0;0;1;0;0;1;1
0;1;0;0;0;1;0;1;1;0
0;1;1;0;0;1;1;0;0;0
0;1;0;0;1;1;0;0;1;0
0;0;1;0;1;1;0;1;0;0
0;0;1;1;1;0;0;0;0;0
