3;10;20
6;10;10
1;1;2
1;NA;1;NA;NA;NA;1;1;1;3
5;1;3;3;2;3;1;2;5;1
5;1;1;4;3;1;1;1;3;1
0;1;0;1;1;0;0;0;0;0
0;0;0;0;0;1;0;0;0;0
0;1;1;0;0;0;1;0;0;1
0;0;0;0;0;1;0;1;0;0
1;0;1;0;1;0;1;0;0;1
0;1;0;1;0;1;0;0;0;0
0;1;1;0;0;1;0;0;1;1
0;1;0;1;0;0;0;0;1;0
0;0;1;0;0;1;0;1;0;0
0;0;0;1;1;0;0;0;0;0
0;0;0;0;1;0;1;0;0;1
1;1;0;1;1;1;0;0;0;0
0;1;0;0;0;0;0;1;0;0
1;1;0;0;0;0;0;0;1;0
0;1;0;0;1;1;0;1;0;0
0;0;1;1;1;0;0;0;0;0
0;0;0;1;0;1;0;0;0;0
0;0;1;0;1;0;0;0;0;0
0;0;0;0;0;1;0;0;0;0
1;0;0;0;0;0;1;1;1;0
