2;10;10;NA;NA;NA;NA;NA;NA;NA
6;7;NA;NA;NA;NA;NA;NA;NA;NA
2;4;NA;NA;NA;NA;NA;NA;NA;NA
7;6;6;7;4;7;10;9;4;6
8;10;8;1;8;5;2;8;6;5
0;0;0;0;0;1;0;0;0;0
0;0;0;0;1;0;1;0;0;0
0;0;1;0;1;0;1;0;1;0
0;0;1;1;0;0;0;1;0;0
1;1;1;0;0;0;0;0;0;1
0;0;0;0;0;0;0;1;0;1
0;0;0;0;0;1;0;0;1;0
0;1;0;0;0;1;1;0;0;0
0;0;0;1;0;0;0;0;0;0
1;1;0;0;0;0;0;0;1;0
