2;10;10;NA;NA;NA;NA;NA;NA;NA
6;7;NA;NA;NA;NA;NA;NA;NA;NA
2;4;NA;NA;NA;NA;NA;NA;NA;NA
2;2;6;9;5;9;2;4;1;3
6;6;2;6;9;4;10;7;9;8
1;1;0;0;1;0;1;0;0;0
0;0;0;0;0;0;0;0;1;1
0;0;0;1;1;0;0;0;0;0
1;0;0;0;0;1;0;0;0;0
0;0;0;0;0;1;0;1;0;0
0;0;0;0;0;0;1;0;0;0
0;1;1;0;1;0;0;0;0;0
1;0;0;0;0;0;0;0;0;0
0;0;0;1;0;0;1;0;1;1
0;0;1;0;0;0;0;1;0;1
