3;10;10
2;7;6
1;1;2
NA;NA;3;NA;NA;NA;NA;NA;NA;NA
2;2;1;2;2;3;2;4;4;4
5;5;1;4;2;2;2;1;2;5
0;0;0;0;1;1;1;0;1;1
0;0;0;1;1;1;1;1;0;0
0;1;0;1;0;0;1;1;1;0
1;1;0;0;0;1;1;1;0;1
1;1;1;1;0;0;0;1;1;1
1;1;0;1;1;0;0;0;0;1
0;0;0;0;0;0;0;1;1;0
0;1;0;0;0;1;0;0;1;1
0;0;1;1;0;1;0;1;1;1
1;1;0;1;1;0;1;0;0;0
