3;10;10
4;8;7
1;1;1
1;NA;NA;NA;NA;3;NA;NA;NA;NA
4;3;4;2;1;1;2;3;2;1
4;2;1;4;1;5;1;4;5;1
1;1;0;0;0;1;1;0;1;0
0;1;1;0;1;0;1;1;1;0
0;0;0;0;0;1;0;0;1;0
1;0;1;1;1;0;0;0;0;0
1;1;0;0;1;0;1;1;1;0
0;1;1;1;0;0;0;1;1;1
0;0;0;1;1;0;1;0;0;1
0;1;0;1;0;1;0;1;1;1
0;0;1;0;0;0;1;1;1;1
1;1;1;1;1;0;0;0;0;1
