3;10;10
2;9;7
1;1;2
NA;NA;4;3;NA;NA;4;NA;NA;NA
4;1;4;5;4;3;1;1;2;3
1;3;5;1;1;1;5;1;2;1
1;0;0;0;1;0;0;1;0;0
0;1;0;0;1;1;0;1;1;0
1;0;0;1;0;0;0;0;1;1
1;1;1;0;0;1;1;1;0;0
1;0;0;0;0;0;0;1;1;0
1;1;1;0;0;1;0;0;0;1
0;1;0;0;0;0;0;1;0;1
1;0;0;0;0;0;0;0;0;1
1;0;0;1;1;1;1;1;0;1
0;0;0;0;0;1;0;1;0;0
