3;10;10
7;4;7
1;2;2
1;1;2;2;3;3;3;4;3;1
4;NA;NA;NA;1;2;4;NA;NA;NA
3;1;4;2;5;3;2;4;5;2
0;1;0;1;1;0;0;0;1;1
1;0;1;0;0;1;0;0;0;1
0;0;0;0;0;1;1;0;1;0
1;0;1;1;0;0;1;1;0;1
0;1;0;1;0;1;0;1;1;1
0;1;1;0;1;1;1;1;1;0
1;1;1;0;1;0;0;1;1;1
0;0;1;0;0;0;0;1;1;0
1;1;1;1;0;0;1;0;0;1
0;1;0;1;0;0;0;0;1;0
