3;10;10
1;3;4
2;1;1
NA;NA;NA;5;NA;3;3;NA;NA;NA
2;5;2;1;4;5;1;NA;2;5
5;5;4;3;2;1;3;3;3;2
0;0;0;0;0;0;0;0;0;1
0;1;0;0;0;0;1;0;0;0
0;0;0;0;1;0;0;0;0;0
0;0;0;1;0;0;0;1;0;0
1;0;1;0;0;0;0;0;0;0
1;0;0;0;0;1;0;0;0;0
0;1;0;0;1;0;0;1;0;0
0;0;0;0;0;0;0;0;1;1
0;1;0;0;0;0;0;1;0;0
0;0;1;0;0;0;0;1;1;0
