2;10;15
12;11
1;2
2;1;4;3;4;1;5;5;5;2
1;1;1;1;5;2;5;2;4;4
0;0;0;1;0;1;1;1;0;1
1;0;1;1;0;1;0;1;0;1
0;1;1;1;0;0;1;0;1;1
1;0;0;1;0;1;1;1;1;1
0;1;1;0;0;0;1;0;0;1
1;1;0;0;0;0;1;0;0;0
1;1;1;1;1;0;1;1;1;1
0;0;0;1;1;1;0;1;0;0
0;0;1;1;0;0;1;0;1;0
1;0;0;1;0;0;1;1;1;1
0;0;0;1;1;1;0;1;1;1
0;0;1;1;0;1;0;0;1;0
1;0;0;0;0;0;1;1;1;1
0;0;0;1;0;1;0;1;0;0
0;0;0;0;1;1;1;0;0;0
