2;10;15
4;4
1;1
2;1;5;5;4;3;5;2;2;4
5;1;4;1;1;1;4;3;4;3
1;0;0;0;0;1;0;0;1;0
0;0;0;0;1;0;0;0;0;0
0;1;0;0;0;0;0;1;0;0
0;0;1;0;0;0;0;0;0;1
0;0;1;1;1;0;0;0;0;1
0;0;0;0;0;1;0;0;0;0
0;0;0;0;1;0;0;0;0;0
0;0;0;0;0;1;0;1;1;0
0;0;0;0;1;0;0;1;0;0
1;0;0;0;0;0;0;1;0;0
0;0;0;0;0;1;0;0;0;0
1;1;0;0;0;0;0;0;0;0
1;0;0;0;0;0;1;0;0;0
0;1;0;0;0;0;1;0;1;0
0;0;0;1;0;0;0;0;0;0
