2;10;15
9;6
2;2
3;3;2;5;5;2;4;2;1;2
3;4;5;1;3;2;2;4;4;2
1;1;1;0;0;1;1;1;0;0
0;0;0;0;0;0;1;0;0;0
0;1;0;1;0;0;0;0;0;0
0;0;0;0;1;0;1;0;0;0
0;0;0;0;1;0;0;0;1;1
0;0;0;0;0;1;0;1;1;1
0;0;1;1;0;1;0;0;0;1
1;1;0;1;0;0;0;0;1;0
0;0;0;0;1;0;0;0;1;0
0;0;0;0;0;0;0;1;0;0
1;1;0;0;1;0;1;1;0;0
1;0;0;0;0;0;0;0;1;0
0;1;0;1;1;0;0;1;0;0
0;0;1;1;0;1;0;0;0;0
0;0;1;0;1;0;0;0;0;0
