2;10;15
7;8
1;1
4;2;4;4;NA;3;1;3;4;3
5;1;4;3;4;1;2;2;1;4
0;1;0;0;1;0;0;0;1;1
0;0;0;0;1;1;0;0;0;0
0;0;0;0;1;0;0;0;0;1
1;1;1;0;1;1;0;0;0;0
0;1;0;0;0;1;0;0;0;0
1;1;1;1;0;0;0;1;0;0
0;1;1;1;0;0;1;0;0;0
1;0;0;1;0;1;0;0;0;0
0;0;0;0;0;0;0;1;0;0
0;0;0;0;0;0;0;0;1;0
0;0;1;1;1;0;0;0;0;0
1;0;0;0;1;1;0;0;0;1
1;0;0;1;0;0;0;0;0;0
0;1;0;0;1;0;0;0;1;0
1;0;0;1;1;0;0;1;0;0
