2;10;15
7;10
1;1
2;4;2;4;2;5;1;1;1;NA
1;1;3;4;4;3;3;2;2;5
0;0;1;1;1;0;0;0;0;0
1;1;0;0;0;0;0;0;0;1
0;0;0;1;0;0;0;0;0;1
1;1;0;1;0;1;0;1;1;1
1;0;0;0;0;0;1;0;1;0
0;1;0;0;1;0;0;0;0;1
1;1;0;0;0;0;0;1;0;1
0;0;0;1;0;1;0;1;0;0
1;0;0;0;0;1;0;0;0;1
1;0;1;1;0;1;0;1;0;0
1;1;0;0;1;1;0;1;0;1
0;1;1;0;0;0;0;0;0;1
0;0;0;0;1;0;0;0;1;0
0;1;1;1;1;0;1;1;0;1
0;0;1;1;1;1;0;0;1;1
