2;10;15
13;11
2;1
5;4;3;5;2;3;1;4;2;2
4;5;1;1;1;4;3;4;2;2
0;1;0;0;1;0;0;0;0;1
1;0;0;0;1;0;0;1;0;1
0;0;1;0;0;1;0;1;1;0
0;0;0;0;0;0;1;1;1;0
0;0;0;0;0;1;1;0;1;1
1;0;1;0;1;1;1;1;1;0
1;0;0;0;1;1;1;0;1;0
0;1;0;0;0;1;1;0;1;0
0;0;0;0;0;1;0;1;0;1
1;0;0;1;1;1;1;1;1;1
1;0;0;1;1;0;0;0;1;1
1;0;1;0;1;1;0;1;1;1
1;0;0;0;0;1;0;0;1;1
0;1;1;1;1;1;1;1;0;0
1;1;1;0;1;1;0;1;0;1
