2;10;15
13;9
2;2
3;3;3;4;2;3;5;1;5;5
3;5;1;1;1;4;3;3;2;1
0;1;1;0;1;0;1;0;0;1
0;0;1;1;0;0;1;1;1;1
1;0;1;0;0;1;0;0;0;1
0;1;0;0;0;1;0;0;1;0
0;1;0;1;1;0;0;0;1;1
1;1;0;0;1;0;0;0;1;0
0;0;0;1;0;0;1;0;0;0
0;1;0;0;1;1;1;1;1;0
0;1;0;0;0;1;0;1;0;0
0;0;1;0;1;0;0;0;0;0
1;1;0;1;1;0;1;0;0;0
0;0;0;0;1;0;0;1;1;1
0;1;1;0;0;0;0;1;0;0
1;1;0;0;1;1;0;0;0;0
1;0;0;1;0;1;0;1;0;0
