2;20;15
7;8
1;2
4;3;4;2;5;2;3;5;NA;1;2;3;1;3;2;3;1;2;5;4
2;5;3;4;2;3;3;2;4;3;1;2;4;1;1;1;1;2;2;1
0;1;0;0;0;0;0;0;1;1;0;0;1;1;0;0;1;0;1;1
0;0;0;1;0;0;0;0;0;0;0;0;0;0;1;1;0;1;0;1
0;1;0;0;1;0;0;1;1;0;0;0;1;0;0;0;0;0;0;0
1;0;0;0;1;0;1;0;1;1;0;0;0;0;0;0;0;0;0;1
0;0;1;1;0;0;0;1;0;0;1;0;1;0;0;1;0;1;0;1
0;0;1;0;0;0;1;1;0;0;0;0;1;0;0;0;0;0;0;0
0;1;0;0;0;0;0;0;0;0;0;0;1;0;1;1;0;0;0;1
0;0;0;1;0;0;0;0;1;0;0;1;0;0;0;0;0;0;1;1
0;0;0;0;1;1;1;1;0;0;0;0;0;0;1;1;0;0;0;0
0;0;0;0;0;1;1;1;0;1;1;0;0;0;0;0;1;0;1;0
0;0;0;0;1;0;0;0;1;0;1;0;0;0;0;0;0;0;0;0
0;0;0;0;1;0;1;0;1;1;0;0;0;1;0;0;1;1;0;1
0;0;0;0;1;1;1;0;0;0;0;0;0;0;1;0;0;0;1;0
1;0;1;1;1;0;0;0;1;0;1;0;0;0;0;1;1;0;1;0
0;0;1;0;0;0;0;1;1;0;1;0;0;1;1;0;0;0;0;0
