2;20;15
12;10
1;1
3;3;5;2;1;3;5;2;2;5;2;1;2;2;3;1;1;2;2;3
5;4;2;4;2;4;3;5;3;4;4;5;1;3;1;4;2;4;3;4
0;0;1;0;1;0;1;1;0;1;1;1;1;0;0;1;1;1;0;1
1;0;1;0;0;0;1;0;1;1;1;0;0;0;1;0;0;0;1;1
1;1;1;0;1;0;0;0;0;0;0;1;0;0;0;1;0;1;1;1
1;1;0;0;1;1;1;1;1;0;1;0;1;0;1;1;1;0;1;0
0;1;1;0;1;0;1;0;1;0;1;1;0;1;1;1;1;0;1;0
1;0;0;1;1;0;0;1;1;0;0;1;1;0;0;0;1;1;0;1
1;1;1;0;0;1;1;1;0;0;0;0;0;0;0;1;1;1;0;0
0;1;1;1;0;1;0;0;0;1;0;1;1;1;0;0;0;0;1;1
0;1;0;0;1;1;1;1;1;1;1;1;0;1;0;0;1;0;1;1
1;1;0;0;0;1;0;0;0;1;0;1;0;0;1;0;0;1;1;1
1;0;1;0;0;0;0;1;1;0;1;1;1;0;1;0;0;1;0;0
1;0;1;0;1;0;0;1;0;0;1;0;1;0;1;0;0;0;1;1
0;1;1;0;0;1;0;0;0;1;1;0;0;0;0;0;1;0;0;0
1;0;0;1;1;1;0;1;1;1;0;1;1;0;1;0;0;0;1;0
0;1;1;0;0;0;1;0;0;0;0;1;0;1;1;1;0;1;0;1
