2;20;15
6;11
2;1
NA;5;NA;5;NA;NA;NA;NA;NA;3;NA;NA;NA;NA;3;NA;3;NA;NA;NA
4;1;3;1;1;1;1;4;3;4;4;2;3;1;2;4;5;5;2;3
1;1;1;1;0;0;1;0;1;0;0;0;1;1;0;0;0;1;1;1
0;0;1;0;1;1;1;1;0;0;1;0;0;1;0;1;0;0;1;0
0;1;0;0;0;1;0;1;1;1;1;0;1;1;1;0;1;0;0;0
1;0;1;0;0;0;1;1;1;0;1;1;1;0;0;1;0;0;0;1
0;1;0;0;0;1;0;1;1;0;0;1;1;0;1;0;1;0;1;0
1;1;0;0;1;0;1;1;0;0;1;1;0;1;0;1;0;0;1;1
0;1;0;0;1;1;1;0;1;0;0;1;1;1;0;1;0;1;0;1
0;0;1;0;1;1;0;0;1;0;1;1;0;0;0;1;0;0;1;1
1;1;1;1;0;1;0;0;1;1;1;0;1;0;0;1;0;1;1;0
1;0;0;1;1;0;0;0;0;1;0;0;0;1;1;1;1;1;1;1
1;0;1;1;0;0;0;1;0;1;1;1;0;0;0;0;0;0;1;0
1;0;0;1;1;1;0;1;1;0;1;0;1;1;0;1;0;1;0;0
1;0;0;0;0;0;1;0;0;0;1;0;1;0;1;0;0;1;1;0
1;0;0;0;1;0;0;0;0;1;1;1;0;1;0;1;0;1;0;1
0;0;1;1;1;1;1;1;1;0;0;0;1;1;0;0;1;1;0;1
