2;20;15
5;9
1;2
5;3;2;3;4;3;NA;2;NA;2;NA;4;5;NA;1;3;5;1;5;NA
2;5;3;1;1;4;3;1;4;4;1;5;4;1;1;4;5;5;3;5
0;1;0;0;0;0;1;0;1;1;0;0;1;1;0;0;0;0;0;1
0;0;0;0;1;0;1;1;1;0;1;0;0;0;0;1;0;0;0;1
0;0;1;0;1;0;1;0;1;0;1;0;0;0;0;0;0;0;0;0
0;0;1;0;0;0;1;0;0;0;0;0;0;1;0;0;1;0;0;0
0;0;1;0;0;0;0;0;1;0;0;0;0;0;0;0;0;0;0;0
0;0;0;1;0;0;0;0;1;0;0;0;0;1;1;1;0;0;1;1
0;0;0;0;0;1;1;1;0;0;1;0;1;0;0;0;1;0;0;1
1;0;0;1;0;0;0;0;0;0;0;0;0;0;0;0;0;0;0;0
1;1;1;0;1;1;0;0;0;0;0;1;0;1;0;1;0;0;0;0
0;1;0;0;0;0;0;0;1;0;0;0;0;1;0;0;1;0;1;1
0;0;0;0;0;0;1;0;0;0;1;1;0;0;0;1;0;1;0;1
0;1;0;1;0;0;0;1;1;0;0;0;0;0;1;1;1;0;0;1
1;0;0;1;0;0;1;0;1;1;1;1;0;1;0;0;1;0;1;0
0;0;0;0;1;1;0;0;1;0;1;0;0;1;0;0;0;0;0;0
0;1;0;1;0;0;0;0;0;0;0;1;1;0;0;0;0;1;1;0
