2;20;15
8;7
2;1
1;2;1;3;1;3;2;5;4;5;4;1;3;5;4;2;3;2;1;3
3;5;2;3;1;5;1;5;2;3;3;5;2;4;3;3;5;2;4;1
0;1;1;0;1;1;0;0;1;0;0;0;0;1;0;0;0;1;1;0
0;1;0;0;0;0;0;1;0;1;0;0;1;0;0;1;0;0;1;0
1;1;0;1;0;0;0;0;0;1;0;0;0;1;0;0;0;0;0;0
1;1;0;0;0;0;0;0;0;0;0;0;0;0;0;0;0;0;0;0
1;0;0;0;0;0;1;0;0;0;0;0;0;0;1;1;1;1;1;1
0;0;0;0;0;1;0;0;1;0;0;0;0;0;1;0;1;0;0;1
0;0;1;1;0;0;1;0;1;0;0;0;0;0;0;0;0;0;0;0
0;0;1;0;1;1;0;1;0;0;0;0;1;1;0;0;0;0;0;0
0;0;1;0;1;1;0;0;1;0;0;1;1;0;0;0;0;1;0;1
0;0;1;0;0;0;0;0;0;0;0;1;0;0;0;0;1;0;0;1
0;0;1;0;1;0;0;1;0;0;0;0;1;0;0;0;0;0;0;0
1;0;0;1;1;1;1;0;0;1;1;1;0;0;1;1;0;1;0;1
1;0;0;0;0;1;1;0;0;0;0;0;0;0;0;0;0;1;1;0
0;0;0;0;0;0;1;1;1;0;1;0;0;0;1;0;0;1;0;0
0;0;0;0;1;0;0;0;0;0;1;0;0;0;1;1;1;1;0;1
