2;20;15
6;11
1;2
NA;NA;4;NA;NA;2;NA;NA;NA;NA;5;2;NA;NA;2;NA;NA;NA;NA;1
5;1;1;5;4;5;4;5;5;2;4;5;5;2;1;1;5;5;2;5
1;0;1;0;1;0;0;1;1;1;0;1;1;1;0;1;0;1;0;0
0;1;1;1;0;0;0;1;1;1;0;0;1;1;1;1;1;0;1;0
1;0;0;1;1;1;0;1;1;0;1;1;1;0;0;1;1;0;1;0
0;1;0;0;1;1;1;1;0;1;1;1;0;1;0;1;1;1;1;0
1;1;0;0;1;0;0;0;0;1;0;1;0;0;1;0;1;1;1;0
0;0;1;0;0;1;1;0;1;0;0;0;1;1;0;0;0;1;0;0
0;1;0;1;0;1;1;1;0;1;0;0;1;1;0;1;1;0;1;0
1;0;0;0;1;0;1;0;1;1;1;1;1;1;1;0;0;0;0;0
0;0;0;1;0;0;0;0;1;0;0;0;0;0;0;1;0;0;1;0
1;0;0;1;1;0;0;1;0;1;0;1;1;1;0;0;0;0;0;0
0;1;1;0;1;0;0;0;1;1;1;0;0;0;1;1;1;1;0;0
1;1;0;1;0;0;0;1;0;0;0;0;1;1;1;0;0;0;1;0
0;1;1;1;0;0;1;1;0;1;0;0;1;1;0;1;0;1;0;1
1;1;1;1;0;1;1;1;0;1;0;0;0;1;0;1;1;1;1;1
0;0;0;0;1;0;1;0;1;1;0;0;0;1;1;0;1;1;1;1
