2;20;15
4;5
1;1
NA;5;4;5;3;4;5;5;5;3;4;4;1;2;1;NA;5;NA;3;2
4;3;1;1;1;3;1;4;5;2;3;4;1;2;1;2;2;2;2;1
0;0;0;1;0;0;0;0;0;0;0;0;0;0;1;0;1;1;0;0
0;1;1;0;1;0;0;0;0;1;0;1;0;0;0;1;0;0;0;0
0;1;0;0;0;0;0;0;0;1;0;0;1;0;0;0;0;0;0;1
0;0;0;1;0;0;0;0;0;0;0;0;0;0;0;1;0;0;0;0
1;0;0;0;1;0;1;0;0;0;0;0;0;1;0;0;1;0;0;0
0;0;0;1;0;0;0;0;0;0;0;0;0;0;0;0;0;1;1;1
1;0;0;0;0;0;0;1;0;0;1;0;0;1;0;0;0;0;0;0
0;0;0;0;0;1;0;0;0;1;1;0;0;0;0;1;0;0;0;1
1;0;0;0;0;0;1;0;1;0;0;0;0;1;0;1;0;0;0;1
1;0;0;0;0;0;0;0;0;0;0;0;0;1;0;0;0;1;0;0
0;0;0;0;0;0;0;0;0;1;0;1;0;0;0;0;0;0;0;0
1;0;1;0;0;0;0;1;1;0;0;0;0;0;1;0;0;0;0;0
0;0;0;1;0;1;0;1;0;0;0;1;1;0;0;0;0;0;0;0
0;0;0;0;0;0;0;0;0;0;0;0;0;0;0;1;0;1;0;0
0;0;0;0;0;0;0;0;1;0;0;1;0;0;0;0;0;1;0;0
